\relax 
\providecommand\hyper@newdestlabel[2]{}
\providecommand\HyperFirstAtBeginDocument{\AtBeginDocument}
\HyperFirstAtBeginDocument{\ifx\hyper@anchor\@undefined
\global\let\oldcontentsline\contentsline
\gdef\contentsline#1#2#3#4{\oldcontentsline{#1}{#2}{#3}}
\global\let\oldnewlabel\newlabel
\gdef\newlabel#1#2{\newlabelxx{#1}#2}
\gdef\newlabelxx#1#2#3#4#5#6{\oldnewlabel{#1}{{#2}{#3}}}
\AtEndDocument{\ifx\hyper@anchor\@undefined
\let\contentsline\oldcontentsline
\let\newlabel\oldnewlabel
\fi}
\fi}
\global\let\hyper@last\relax 
\gdef\HyperFirstAtBeginDocument#1{#1}
\providecommand\HyField@AuxAddToFields[1]{}
\providecommand\HyField@AuxAddToCoFields[2]{}
\providecommand \oddpage@label [2]{}
\@writefile{toc}{\contentsline {chapter}{\numberline {1}Hierarchical Index}{1}{chapter.1}}
\@writefile{lof}{\addvspace {10\p@ }}
\@writefile{lot}{\addvspace {10\p@ }}
\@writefile{toc}{\contentsline {section}{\numberline {1.1}Class Hierarchy}{1}{section.1.1}}
\@writefile{toc}{\contentsline {chapter}{\numberline {2}Class Index}{3}{chapter.2}}
\@writefile{lof}{\addvspace {10\p@ }}
\@writefile{lot}{\addvspace {10\p@ }}
\@writefile{toc}{\contentsline {section}{\numberline {2.1}Class List}{3}{section.2.1}}
\@writefile{toc}{\contentsline {chapter}{\numberline {3}Class Documentation}{5}{chapter.3}}
\@writefile{lof}{\addvspace {10\p@ }}
\@writefile{lot}{\addvspace {10\p@ }}
\@writefile{toc}{\contentsline {section}{\numberline {3.1}Login\discretionary {\unhbox \voidb@x \hbox {\relax \fontsize  {7}{8}\selectfont  $\leftarrow \joinrel  \rhook $}}{}{}Data Class Reference}{5}{section.3.1}}
\newlabel{class_login_data}{{3.1}{5}{Login\+Data Class Reference}{section.3.1}{}}
\newlabel{class_login_data_ad78189a6ab400117366dd1ee9ea72fee}{{3.1}{5}{Public Member Functions}{section*.2}{}}
\newlabel{class_login_data_a40161cd3e943bfe5b8f92459b2de6245}{{3.1}{5}{Public Member Functions}{section*.2}{}}
\@writefile{toc}{\contentsline {subsection}{\numberline {3.1.1}Detailed Description}{6}{subsection.3.1.1}}
\@writefile{toc}{\contentsline {subsection}{\numberline {3.1.2}Member Function Documentation}{6}{subsection.3.1.2}}
\newlabel{class_login_data_a04d35e86132b4a9aac5a6b3a19e83f5d}{{3.1.2}{6}{Member Function Documentation}{subsection.3.1.2}{}}
\@writefile{toc}{\contentsline {subsubsection}{\numberline {3.1.2.1}get\discretionary {\unhbox \voidb@x \hbox {\relax \fontsize  {7}{8}\selectfont  $\leftarrow \joinrel  \rhook $}}{}{}Nonce()}{6}{subsubsection.3.1.2.1}}
\newlabel{class_login_data_a8a745ae4df5a0930ffe5fcab396492ae}{{3.1.2.1}{6}{\texorpdfstring {get\+Nonce()}{getNonce()}}{subsubsection.3.1.2.1}{}}
\@writefile{toc}{\contentsline {subsubsection}{\numberline {3.1.2.2}get\discretionary {\unhbox \voidb@x \hbox {\relax \fontsize  {7}{8}\selectfont  $\leftarrow \joinrel  \rhook $}}{}{}Password()}{6}{subsubsection.3.1.2.2}}
\newlabel{class_login_data_a4a1ccea6da4073ea00e9a4168ba0832b}{{3.1.2.2}{6}{\texorpdfstring {get\+Password()}{getPassword()}}{subsubsection.3.1.2.2}{}}
\@writefile{toc}{\contentsline {subsubsection}{\numberline {3.1.2.3}get\discretionary {\unhbox \voidb@x \hbox {\relax \fontsize  {7}{8}\selectfont  $\leftarrow \joinrel  \rhook $}}{}{}Token()}{6}{subsubsection.3.1.2.3}}
\newlabel{class_login_data_a3a3f8924fb919a5972d1168aa5110aeb}{{3.1.2.3}{6}{\texorpdfstring {get\+Token()}{getToken()}}{subsubsection.3.1.2.3}{}}
\@writefile{toc}{\contentsline {subsubsection}{\numberline {3.1.2.4}get\discretionary {\unhbox \voidb@x \hbox {\relax \fontsize  {7}{8}\selectfont  $\leftarrow \joinrel  \rhook $}}{}{}User\discretionary {\unhbox \voidb@x \hbox {\relax \fontsize  {7}{8}\selectfont  $\leftarrow \joinrel  \rhook $}}{}{}Id()}{6}{subsubsection.3.1.2.4}}
\newlabel{class_login_data_aba79bcfa865058a752c63b14326364da}{{3.1.2.4}{6}{\texorpdfstring {get\+User\+Id()}{getUserId()}}{subsubsection.3.1.2.4}{}}
\gdef \LT@i {\LT@entry 
    {3}{31.80762pt}\LT@entry 
    {3}{36.41153pt}}
\gdef \LT@ii {\LT@entry 
    {3}{38.8096pt}\LT@entry 
    {3}{12.4pt}}
\@writefile{toc}{\contentsline {subsubsection}{\numberline {3.1.2.5}get\discretionary {\unhbox \voidb@x \hbox {\relax \fontsize  {7}{8}\selectfont  $\leftarrow \joinrel  \rhook $}}{}{}User\discretionary {\unhbox \voidb@x \hbox {\relax \fontsize  {7}{8}\selectfont  $\leftarrow \joinrel  \rhook $}}{}{}Name()}{7}{subsubsection.3.1.2.5}}
\newlabel{class_login_data_a0f0d9f810be05b4c2e799d124cd05fe8}{{3.1.2.5}{7}{\texorpdfstring {get\+User\+Name()}{getUserName()}}{subsubsection.3.1.2.5}{}}
\@writefile{toc}{\contentsline {subsubsection}{\numberline {3.1.2.6}is\discretionary {\unhbox \voidb@x \hbox {\relax \fontsize  {7}{8}\selectfont  $\leftarrow \joinrel  \rhook $}}{}{}Logged()}{7}{subsubsection.3.1.2.6}}
\newlabel{class_login_data_ae2a9f70d159ad24817e35a01b11691a3}{{3.1.2.6}{7}{\texorpdfstring {is\+Logged()}{isLogged()}}{subsubsection.3.1.2.6}{}}
\@writefile{toc}{\contentsline {subsubsection}{\numberline {3.1.2.7}set\discretionary {\unhbox \voidb@x \hbox {\relax \fontsize  {7}{8}\selectfont  $\leftarrow \joinrel  \rhook $}}{}{}Logged()}{7}{subsubsection.3.1.2.7}}
\newlabel{class_login_data_a0705f7a5ceb4d3a0255023af96ee9846}{{3.1.2.7}{7}{\texorpdfstring {set\+Logged()}{setLogged()}}{table.3.1}{}}
\@writefile{toc}{\contentsline {subsubsection}{\numberline {3.1.2.8}set\discretionary {\unhbox \voidb@x \hbox {\relax \fontsize  {7}{8}\selectfont  $\leftarrow \joinrel  \rhook $}}{}{}Nonce()}{7}{subsubsection.3.1.2.8}}
\newlabel{class_login_data_a0258315a87ed6331745e85d1f7d3f26e}{{3.1.2.8}{7}{\texorpdfstring {set\+Nonce()}{setNonce()}}{table.3.2}{}}
\@writefile{toc}{\contentsline {subsubsection}{\numberline {3.1.2.9}set\discretionary {\unhbox \voidb@x \hbox {\relax \fontsize  {7}{8}\selectfont  $\leftarrow \joinrel  \rhook $}}{}{}Password()}{7}{subsubsection.3.1.2.9}}
\gdef \LT@iii {\LT@entry 
    {3}{51.58952pt}\LT@entry 
    {3}{12.4pt}}
\gdef \LT@iv {\LT@entry 
    {3}{36.5507pt}\LT@entry 
    {3}{12.4pt}}
\gdef \LT@v {\LT@entry 
    {3}{31.79872pt}\LT@entry 
    {3}{48.92123pt}}
\gdef \LT@vi {\LT@entry 
    {3}{31.79872pt}\LT@entry 
    {3}{36.40263pt}}
\newlabel{class_login_data_a150712c4e8453ad4d17103db815ce6b4}{{3.1.2.9}{8}{\texorpdfstring {set\+Password()}{setPassword()}}{table.3.3}{}}
\@writefile{toc}{\contentsline {subsubsection}{\numberline {3.1.2.10}set\discretionary {\unhbox \voidb@x \hbox {\relax \fontsize  {7}{8}\selectfont  $\leftarrow \joinrel  \rhook $}}{}{}Token()}{8}{subsubsection.3.1.2.10}}
\newlabel{class_login_data_a3ca4c17622c49649145c9762996c6be8}{{3.1.2.10}{8}{\texorpdfstring {set\+Token()}{setToken()}}{table.3.4}{}}
\@writefile{toc}{\contentsline {subsubsection}{\numberline {3.1.2.11}set\discretionary {\unhbox \voidb@x \hbox {\relax \fontsize  {7}{8}\selectfont  $\leftarrow \joinrel  \rhook $}}{}{}User\discretionary {\unhbox \voidb@x \hbox {\relax \fontsize  {7}{8}\selectfont  $\leftarrow \joinrel  \rhook $}}{}{}Id()}{8}{subsubsection.3.1.2.11}}
\newlabel{class_login_data_ac21f9ce4fa11777fd58c6e44f69d1764}{{3.1.2.11}{8}{\texorpdfstring {set\+User\+Id()}{setUserId()}}{table.3.5}{}}
\@writefile{toc}{\contentsline {subsubsection}{\numberline {3.1.2.12}set\discretionary {\unhbox \voidb@x \hbox {\relax \fontsize  {7}{8}\selectfont  $\leftarrow \joinrel  \rhook $}}{}{}User\discretionary {\unhbox \voidb@x \hbox {\relax \fontsize  {7}{8}\selectfont  $\leftarrow \joinrel  \rhook $}}{}{}Name()}{8}{subsubsection.3.1.2.12}}
\@writefile{toc}{\contentsline {section}{\numberline {3.2}Product Class Reference}{8}{section.3.2}}
\newlabel{class_product}{{3.2}{8}{Product Class Reference}{section.3.2}{}}
\gdef \LT@vii {\LT@entry 
    {3}{45.81134pt}\LT@entry 
    {3}{12.4pt}}
\@writefile{toc}{\contentsline {subsection}{\numberline {3.2.1}Detailed Description}{9}{subsection.3.2.1}}
\@writefile{toc}{\contentsline {subsection}{\numberline {3.2.2}Constructor \& Destructor Documentation}{9}{subsection.3.2.2}}
\newlabel{class_product_afe6aa3417fafe7e07bebe712a5611498}{{3.2.2}{9}{Constructor \& Destructor Documentation}{subsection.3.2.2}{}}
\@writefile{toc}{\contentsline {subsubsection}{\numberline {3.2.2.1}Product()}{9}{subsubsection.3.2.2.1}}
\@writefile{toc}{\contentsline {subsection}{\numberline {3.2.3}Member Function Documentation}{10}{subsection.3.2.3}}
\newlabel{class_product_afeb91663c865e78e8001a8903e8e962e}{{3.2.3}{10}{Member Function Documentation}{subsection.3.2.3}{}}
\@writefile{toc}{\contentsline {subsubsection}{\numberline {3.2.3.1}get\discretionary {\unhbox \voidb@x \hbox {\relax \fontsize  {7}{8}\selectfont  $\leftarrow \joinrel  \rhook $}}{}{}File\discretionary {\unhbox \voidb@x \hbox {\relax \fontsize  {7}{8}\selectfont  $\leftarrow \joinrel  \rhook $}}{}{}Name()}{10}{subsubsection.3.2.3.1}}
\newlabel{class_product_af1d79437538cbd810918a80e091828bd}{{3.2.3.1}{10}{\texorpdfstring {get\+File\+Name()}{getFileName()}}{subsubsection.3.2.3.1}{}}
\@writefile{toc}{\contentsline {subsubsection}{\numberline {3.2.3.2}get\discretionary {\unhbox \voidb@x \hbox {\relax \fontsize  {7}{8}\selectfont  $\leftarrow \joinrel  \rhook $}}{}{}Project\discretionary {\unhbox \voidb@x \hbox {\relax \fontsize  {7}{8}\selectfont  $\leftarrow \joinrel  \rhook $}}{}{}U\discretionary {\unhbox \voidb@x \hbox {\relax \fontsize  {7}{8}\selectfont  $\leftarrow \joinrel  \rhook $}}{}{}U\discretionary {\unhbox \voidb@x \hbox {\relax \fontsize  {7}{8}\selectfont  $\leftarrow \joinrel  \rhook $}}{}{}I\discretionary {\unhbox \voidb@x \hbox {\relax \fontsize  {7}{8}\selectfont  $\leftarrow \joinrel  \rhook $}}{}{}D()}{10}{subsubsection.3.2.3.2}}
\newlabel{class_product_a9ba9bc29e68344df2e8356e3df0e147d}{{3.2.3.2}{10}{\texorpdfstring {get\+Project\+U\+U\+I\+D()}{getProjectUUID()}}{subsubsection.3.2.3.2}{}}
\@writefile{toc}{\contentsline {subsubsection}{\numberline {3.2.3.3}get\discretionary {\unhbox \voidb@x \hbox {\relax \fontsize  {7}{8}\selectfont  $\leftarrow \joinrel  \rhook $}}{}{}Type()}{10}{subsubsection.3.2.3.3}}
\newlabel{class_product_a58331bb5b45683150f9399dca9296579}{{3.2.3.3}{10}{\texorpdfstring {get\+Type()}{getType()}}{subsubsection.3.2.3.3}{}}
\@writefile{toc}{\contentsline {subsubsection}{\numberline {3.2.3.4}get\discretionary {\unhbox \voidb@x \hbox {\relax \fontsize  {7}{8}\selectfont  $\leftarrow \joinrel  \rhook $}}{}{}U\discretionary {\unhbox \voidb@x \hbox {\relax \fontsize  {7}{8}\selectfont  $\leftarrow \joinrel  \rhook $}}{}{}U\discretionary {\unhbox \voidb@x \hbox {\relax \fontsize  {7}{8}\selectfont  $\leftarrow \joinrel  \rhook $}}{}{}I\discretionary {\unhbox \voidb@x \hbox {\relax \fontsize  {7}{8}\selectfont  $\leftarrow \joinrel  \rhook $}}{}{}D()}{10}{subsubsection.3.2.3.4}}
\newlabel{class_product_a2a225b23af1edf3a450083dcdaec3913}{{3.2.3.4}{10}{\texorpdfstring {get\+U\+U\+I\+D()}{getUUID()}}{subsubsection.3.2.3.4}{}}
\@writefile{toc}{\contentsline {subsubsection}{\numberline {3.2.3.5}set\discretionary {\unhbox \voidb@x \hbox {\relax \fontsize  {7}{8}\selectfont  $\leftarrow \joinrel  \rhook $}}{}{}File\discretionary {\unhbox \voidb@x \hbox {\relax \fontsize  {7}{8}\selectfont  $\leftarrow \joinrel  \rhook $}}{}{}Name()}{10}{subsubsection.3.2.3.5}}
\gdef \LT@viii {\LT@entry 
    {3}{27.29875pt}\LT@entry 
    {3}{36.40263pt}}
\gdef \LT@ix {\LT@entry 
    {3}{40.80743pt}\LT@entry 
    {3}{34.39566pt}}
\gdef \LT@x {\LT@entry 
    {3}{31.72676pt}\LT@entry 
    {1}{14.16042pt}}
\gdef \LT@xi {\LT@entry 
    {3}{34.79565pt}\LT@entry 
    {3}{12.4pt}}
\newlabel{class_product_a981e96b207ec9f8e40a44648c2b1adff}{{3.2.3.5}{11}{\texorpdfstring {set\+File\+Name()}{setFileName()}}{table.3.8}{}}
\@writefile{toc}{\contentsline {subsubsection}{\numberline {3.2.3.6}set\discretionary {\unhbox \voidb@x \hbox {\relax \fontsize  {7}{8}\selectfont  $\leftarrow \joinrel  \rhook $}}{}{}Project\discretionary {\unhbox \voidb@x \hbox {\relax \fontsize  {7}{8}\selectfont  $\leftarrow \joinrel  \rhook $}}{}{}U\discretionary {\unhbox \voidb@x \hbox {\relax \fontsize  {7}{8}\selectfont  $\leftarrow \joinrel  \rhook $}}{}{}U\discretionary {\unhbox \voidb@x \hbox {\relax \fontsize  {7}{8}\selectfont  $\leftarrow \joinrel  \rhook $}}{}{}I\discretionary {\unhbox \voidb@x \hbox {\relax \fontsize  {7}{8}\selectfont  $\leftarrow \joinrel  \rhook $}}{}{}D()}{11}{subsubsection.3.2.3.6}}
\newlabel{class_product_ad9ad82a2353c183b6da7a54d4eedf88b}{{3.2.3.6}{11}{\texorpdfstring {set\+Project\+U\+U\+I\+D()}{setProjectUUID()}}{table.3.9}{}}
\@writefile{toc}{\contentsline {subsubsection}{\numberline {3.2.3.7}set\discretionary {\unhbox \voidb@x \hbox {\relax \fontsize  {7}{8}\selectfont  $\leftarrow \joinrel  \rhook $}}{}{}Type()}{11}{subsubsection.3.2.3.7}}
\newlabel{class_product_abbfb5862c81491d38827d32e11879fca}{{3.2.3.7}{11}{\texorpdfstring {set\+Type()}{setType()}}{table.3.10}{}}
\@writefile{toc}{\contentsline {subsubsection}{\numberline {3.2.3.8}set\discretionary {\unhbox \voidb@x \hbox {\relax \fontsize  {7}{8}\selectfont  $\leftarrow \joinrel  \rhook $}}{}{}U\discretionary {\unhbox \voidb@x \hbox {\relax \fontsize  {7}{8}\selectfont  $\leftarrow \joinrel  \rhook $}}{}{}U\discretionary {\unhbox \voidb@x \hbox {\relax \fontsize  {7}{8}\selectfont  $\leftarrow \joinrel  \rhook $}}{}{}I\discretionary {\unhbox \voidb@x \hbox {\relax \fontsize  {7}{8}\selectfont  $\leftarrow \joinrel  \rhook $}}{}{}D()}{11}{subsubsection.3.2.3.8}}
\@writefile{toc}{\contentsline {section}{\numberline {3.3}Products\discretionary {\unhbox \voidb@x \hbox {\relax \fontsize  {7}{8}\selectfont  $\leftarrow \joinrel  \rhook $}}{}{}Table\discretionary {\unhbox \voidb@x \hbox {\relax \fontsize  {7}{8}\selectfont  $\leftarrow \joinrel  \rhook $}}{}{}Model Class Reference}{11}{section.3.3}}
\newlabel{class_products_table_model}{{3.3}{11}{Products\+Table\+Model Class Reference}{section.3.3}{}}
\gdef \LT@xii {\LT@entry 
    {3}{45.81134pt}\LT@entry 
    {3}{12.4pt}}
\@writefile{toc}{\contentsline {subsection}{\numberline {3.3.1}Detailed Description}{12}{subsection.3.3.1}}
\@writefile{toc}{\contentsline {subsection}{\numberline {3.3.2}Constructor \& Destructor Documentation}{12}{subsection.3.3.2}}
\newlabel{class_products_table_model_a5331c662344763754c3f41dec35962f7}{{3.3.2}{12}{Constructor \& Destructor Documentation}{subsection.3.3.2}{}}
\@writefile{toc}{\contentsline {subsubsection}{\numberline {3.3.2.1}Products\discretionary {\unhbox \voidb@x \hbox {\relax \fontsize  {7}{8}\selectfont  $\leftarrow \joinrel  \rhook $}}{}{}Table\discretionary {\unhbox \voidb@x \hbox {\relax \fontsize  {7}{8}\selectfont  $\leftarrow \joinrel  \rhook $}}{}{}Model()}{12}{subsubsection.3.3.2.1}}
\gdef \LT@xiii {\LT@entry 
    {3}{66.05206pt}\LT@entry 
    {3}{12.4pt}}
\gdef \LT@xiv {\LT@entry 
    {3}{34.03969pt}\LT@entry 
    {3}{12.4pt}}
\gdef \LT@xv {\LT@entry 
    {3}{34.03969pt}\LT@entry 
    {3}{12.4pt}}
\@writefile{toc}{\contentsline {subsection}{\numberline {3.3.3}Member Function Documentation}{13}{subsection.3.3.3}}
\newlabel{class_products_table_model_aa2297830b09b27ff9eeaff9bc527c84d}{{3.3.3}{13}{Member Function Documentation}{subsection.3.3.3}{}}
\@writefile{toc}{\contentsline {subsubsection}{\numberline {3.3.3.1}column\discretionary {\unhbox \voidb@x \hbox {\relax \fontsize  {7}{8}\selectfont  $\leftarrow \joinrel  \rhook $}}{}{}Count()}{13}{subsubsection.3.3.3.1}}
\newlabel{class_products_table_model_a16809ba7afc56e8c1366a6336152a13c}{{3.3.3.1}{13}{\texorpdfstring {column\+Count()}{columnCount()}}{table.3.13}{}}
\@writefile{toc}{\contentsline {subsubsection}{\numberline {3.3.3.2}data()}{13}{subsubsection.3.3.3.2}}
\newlabel{class_products_table_model_ac35d2e8cecc0b9f85ffb84a26d1b53d3}{{3.3.3.2}{13}{\texorpdfstring {data()}{data()}}{table.3.14}{}}
\@writefile{toc}{\contentsline {subsubsection}{\numberline {3.3.3.3}flags()}{13}{subsubsection.3.3.3.3}}
\gdef \LT@xvi {\LT@entry 
    {3}{44.82138pt}\LT@entry 
    {3}{94.71208pt}}
\gdef \LT@xvii {\LT@entry 
    {3}{54.95496pt}\LT@entry 
    {3}{12.4pt}}
\gdef \LT@xviii {\LT@entry 
    {3}{66.05206pt}\LT@entry 
    {3}{12.4pt}}
\newlabel{class_products_table_model_aea9bf46e1665880ce034a8a7666c515b}{{3.3.3.3}{14}{\texorpdfstring {flags()}{flags()}}{table.3.15}{}}
\@writefile{toc}{\contentsline {subsubsection}{\numberline {3.3.3.4}get\discretionary {\unhbox \voidb@x \hbox {\relax \fontsize  {7}{8}\selectfont  $\leftarrow \joinrel  \rhook $}}{}{}Products\discretionary {\unhbox \voidb@x \hbox {\relax \fontsize  {7}{8}\selectfont  $\leftarrow \joinrel  \rhook $}}{}{}List()}{14}{subsubsection.3.3.3.4}}
\newlabel{class_products_table_model_a9142219a1f2179474ca65b15bd6e6d5b}{{3.3.3.4}{14}{\texorpdfstring {get\+Products\+List()}{getProductsList()}}{table.3.16}{}}
\@writefile{toc}{\contentsline {subsubsection}{\numberline {3.3.3.5}header\discretionary {\unhbox \voidb@x \hbox {\relax \fontsize  {7}{8}\selectfont  $\leftarrow \joinrel  \rhook $}}{}{}Data()}{14}{subsubsection.3.3.3.5}}
\newlabel{class_products_table_model_ac12d250720966ad4aaba80742b3a0116}{{3.3.3.5}{14}{\texorpdfstring {header\+Data()}{headerData()}}{table.3.17}{}}
\@writefile{toc}{\contentsline {subsubsection}{\numberline {3.3.3.6}row\discretionary {\unhbox \voidb@x \hbox {\relax \fontsize  {7}{8}\selectfont  $\leftarrow \joinrel  \rhook $}}{}{}Count()}{14}{subsubsection.3.3.3.6}}
\gdef \LT@xix {\LT@entry 
    {3}{34.08463pt}\LT@entry 
    {3}{12.4pt}}
\gdef \LT@xx {\LT@entry 
    {3}{48.31335pt}\LT@entry 
    {3}{26.40372pt}}
\newlabel{class_products_table_model_a81f8078fac2e90a4374804279563cec5}{{3.3.3.6}{15}{\texorpdfstring {row\+Count()}{rowCount()}}{table.3.18}{}}
\@writefile{toc}{\contentsline {subsubsection}{\numberline {3.3.3.7}set\discretionary {\unhbox \voidb@x \hbox {\relax \fontsize  {7}{8}\selectfont  $\leftarrow \joinrel  \rhook $}}{}{}Data()}{15}{subsubsection.3.3.3.7}}
\newlabel{class_products_table_model_a8dd1dd9ef33e3faf811064bb9ba04860}{{3.3.3.7}{15}{\texorpdfstring {set\+Data()}{setData()}}{table.3.19}{}}
\@writefile{toc}{\contentsline {subsubsection}{\numberline {3.3.3.8}set\discretionary {\unhbox \voidb@x \hbox {\relax \fontsize  {7}{8}\selectfont  $\leftarrow \joinrel  \rhook $}}{}{}Products\discretionary {\unhbox \voidb@x \hbox {\relax \fontsize  {7}{8}\selectfont  $\leftarrow \joinrel  \rhook $}}{}{}List()}{15}{subsubsection.3.3.3.8}}
\@writefile{toc}{\contentsline {section}{\numberline {3.4}Project Class Reference}{15}{section.3.4}}
\newlabel{class_project}{{3.4}{15}{Project Class Reference}{section.3.4}{}}
\newlabel{class_project_aa007ecd17d5bc800e7a956cf666eea21}{{3.4}{16}{Public Member Functions}{section*.7}{}}
\gdef \LT@xxi {\LT@entry 
    {3}{32.31155pt}\LT@entry 
    {3}{57.91216pt}}
\gdef \LT@xxii {\LT@entry 
    {3}{41.80653pt}\LT@entry 
    {3}{47.05827pt}}
\@writefile{toc}{\contentsline {subsection}{\numberline {3.4.1}Detailed Description}{17}{subsection.3.4.1}}
\@writefile{toc}{\contentsline {subsection}{\numberline {3.4.2}Member Function Documentation}{17}{subsection.3.4.2}}
\newlabel{class_project_a7ad9dddb3d799072615758d8334a9e9b}{{3.4.2}{17}{Member Function Documentation}{subsection.3.4.2}{}}
\@writefile{toc}{\contentsline {subsubsection}{\numberline {3.4.2.1}add\discretionary {\unhbox \voidb@x \hbox {\relax \fontsize  {7}{8}\selectfont  $\leftarrow \joinrel  \rhook $}}{}{}Imput\discretionary {\unhbox \voidb@x \hbox {\relax \fontsize  {7}{8}\selectfont  $\leftarrow \joinrel  \rhook $}}{}{}Images()\hspace  {0.1cm}{\relax \fontsize  {8}{9.5}\selectfont  \abovedisplayskip 6\p@ plus2\p@ minus4\p@ \abovedisplayshortskip \z@ plus\p@ \belowdisplayshortskip 3\p@ plus\p@ minus2\p@ \def \leftmargin \leftmargini \parsep 4\p@ plus2\p@ minus\p@ \topsep 8\p@ plus2\p@ minus4\p@ \itemsep 4\p@ plus2\p@ minus\p@ {\leftmargin \leftmargini \topsep 3\p@ plus\p@ minus\p@ \parsep 2\p@ plus\p@ minus\p@ \itemsep \parsep }\belowdisplayskip \abovedisplayskip \ttfamily  [1/2]}}{17}{subsubsection.3.4.2.1}}
\newlabel{class_project_a3c6493085b90a85d2d2f545b2cc470be}{{3.4.2.1}{17}{\texorpdfstring {add\+Imput\+Images()}{addImputImages()}\hspace {0.1cm}{\footnotesize \ttfamily [1/2]}}{table.3.21}{}}
\@writefile{toc}{\contentsline {subsubsection}{\numberline {3.4.2.2}add\discretionary {\unhbox \voidb@x \hbox {\relax \fontsize  {7}{8}\selectfont  $\leftarrow \joinrel  \rhook $}}{}{}Imput\discretionary {\unhbox \voidb@x \hbox {\relax \fontsize  {7}{8}\selectfont  $\leftarrow \joinrel  \rhook $}}{}{}Images()\hspace  {0.1cm}{\relax \fontsize  {8}{9.5}\selectfont  \abovedisplayskip 6\p@ plus2\p@ minus4\p@ \abovedisplayshortskip \z@ plus\p@ \belowdisplayshortskip 3\p@ plus\p@ minus2\p@ \def \leftmargin \leftmargini \parsep 4\p@ plus2\p@ minus\p@ \topsep 8\p@ plus2\p@ minus4\p@ \itemsep 4\p@ plus2\p@ minus\p@ {\leftmargin \leftmargini \topsep 3\p@ plus\p@ minus\p@ \parsep 2\p@ plus\p@ minus\p@ \itemsep \parsep }\belowdisplayskip \abovedisplayskip \ttfamily  [2/2]}}{17}{subsubsection.3.4.2.2}}
\newlabel{class_project_aaaeaaffbbbd176570d1c5449988f3966}{{3.4.2.2}{17}{\texorpdfstring {add\+Imput\+Images()}{addImputImages()}\hspace {0.1cm}{\footnotesize \ttfamily [2/2]}}{table.3.22}{}}
\@writefile{toc}{\contentsline {subsubsection}{\numberline {3.4.2.3}get\discretionary {\unhbox \voidb@x \hbox {\relax \fontsize  {7}{8}\selectfont  $\leftarrow \joinrel  \rhook $}}{}{}Base\discretionary {\unhbox \voidb@x \hbox {\relax \fontsize  {7}{8}\selectfont  $\leftarrow \joinrel  \rhook $}}{}{}Path()}{17}{subsubsection.3.4.2.3}}
\newlabel{class_project_a63818f987585da340d9023d8f3cc619d}{{3.4.2.3}{18}{\texorpdfstring {get\+Base\+Path()}{getBasePath()}}{subsubsection.3.4.2.3}{}}
\@writefile{toc}{\contentsline {subsubsection}{\numberline {3.4.2.4}get\discretionary {\unhbox \voidb@x \hbox {\relax \fontsize  {7}{8}\selectfont  $\leftarrow \joinrel  \rhook $}}{}{}Cloud\discretionary {\unhbox \voidb@x \hbox {\relax \fontsize  {7}{8}\selectfont  $\leftarrow \joinrel  \rhook $}}{}{}U\discretionary {\unhbox \voidb@x \hbox {\relax \fontsize  {7}{8}\selectfont  $\leftarrow \joinrel  \rhook $}}{}{}U\discretionary {\unhbox \voidb@x \hbox {\relax \fontsize  {7}{8}\selectfont  $\leftarrow \joinrel  \rhook $}}{}{}I\discretionary {\unhbox \voidb@x \hbox {\relax \fontsize  {7}{8}\selectfont  $\leftarrow \joinrel  \rhook $}}{}{}D()}{18}{subsubsection.3.4.2.4}}
\newlabel{class_project_a5fad3c87f62513dc152ff1e12edcbd25}{{3.4.2.4}{18}{\texorpdfstring {get\+Cloud\+U\+U\+I\+D()}{getCloudUUID()}}{subsubsection.3.4.2.4}{}}
\@writefile{toc}{\contentsline {subsubsection}{\numberline {3.4.2.5}get\discretionary {\unhbox \voidb@x \hbox {\relax \fontsize  {7}{8}\selectfont  $\leftarrow \joinrel  \rhook $}}{}{}Dense\discretionary {\unhbox \voidb@x \hbox {\relax \fontsize  {7}{8}\selectfont  $\leftarrow \joinrel  \rhook $}}{}{}Model\discretionary {\unhbox \voidb@x \hbox {\relax \fontsize  {7}{8}\selectfont  $\leftarrow \joinrel  \rhook $}}{}{}Full\discretionary {\unhbox \voidb@x \hbox {\relax \fontsize  {7}{8}\selectfont  $\leftarrow \joinrel  \rhook $}}{}{}Path()}{18}{subsubsection.3.4.2.5}}
\newlabel{class_project_adf3a273d33461bf25cd67e365901d2c2}{{3.4.2.5}{18}{\texorpdfstring {get\+Dense\+Model\+Full\+Path()}{getDenseModelFullPath()}}{subsubsection.3.4.2.5}{}}
\@writefile{toc}{\contentsline {subsubsection}{\numberline {3.4.2.6}get\discretionary {\unhbox \voidb@x \hbox {\relax \fontsize  {7}{8}\selectfont  $\leftarrow \joinrel  \rhook $}}{}{}Dense\discretionary {\unhbox \voidb@x \hbox {\relax \fontsize  {7}{8}\selectfont  $\leftarrow \joinrel  \rhook $}}{}{}Model\discretionary {\unhbox \voidb@x \hbox {\relax \fontsize  {7}{8}\selectfont  $\leftarrow \joinrel  \rhook $}}{}{}Relative\discretionary {\unhbox \voidb@x \hbox {\relax \fontsize  {7}{8}\selectfont  $\leftarrow \joinrel  \rhook $}}{}{}Path()}{18}{subsubsection.3.4.2.6}}
\newlabel{class_project_a26ffd95941a794f429c69de676840386}{{3.4.2.6}{18}{\texorpdfstring {get\+Dense\+Model\+Relative\+Path()}{getDenseModelRelativePath()}}{subsubsection.3.4.2.6}{}}
\@writefile{toc}{\contentsline {subsubsection}{\numberline {3.4.2.7}get\discretionary {\unhbox \voidb@x \hbox {\relax \fontsize  {7}{8}\selectfont  $\leftarrow \joinrel  \rhook $}}{}{}Description()}{18}{subsubsection.3.4.2.7}}
\newlabel{class_project_a9fce4d392a2780f0c798ce040b2752f0}{{3.4.2.7}{18}{\texorpdfstring {get\+Description()}{getDescription()}}{subsubsection.3.4.2.7}{}}
\@writefile{toc}{\contentsline {subsubsection}{\numberline {3.4.2.8}get\discretionary {\unhbox \voidb@x \hbox {\relax \fontsize  {7}{8}\selectfont  $\leftarrow \joinrel  \rhook $}}{}{}I\discretionary {\unhbox \voidb@x \hbox {\relax \fontsize  {7}{8}\selectfont  $\leftarrow \joinrel  \rhook $}}{}{}D()}{18}{subsubsection.3.4.2.8}}
\newlabel{class_project_a24506c406d16e748bcebbb2ceb5f9c8c}{{3.4.2.8}{18}{\texorpdfstring {get\+I\+D()}{getID()}}{subsubsection.3.4.2.8}{}}
\@writefile{toc}{\contentsline {subsubsection}{\numberline {3.4.2.9}get\discretionary {\unhbox \voidb@x \hbox {\relax \fontsize  {7}{8}\selectfont  $\leftarrow \joinrel  \rhook $}}{}{}Image\discretionary {\unhbox \voidb@x \hbox {\relax \fontsize  {7}{8}\selectfont  $\leftarrow \joinrel  \rhook $}}{}{}By\discretionary {\unhbox \voidb@x \hbox {\relax \fontsize  {7}{8}\selectfont  $\leftarrow \joinrel  \rhook $}}{}{}Name()}{18}{subsubsection.3.4.2.9}}
\gdef \LT@xxiii {\LT@entry 
    {3}{37.8105pt}\LT@entry 
    {3}{34.90862pt}}
\gdef \LT@xxiv {\LT@entry 
    {3}{37.30656pt}\LT@entry 
    {3}{22.53369pt}}
\newlabel{class_project_a5ab838b4445debc6f026bfeda81aead6}{{3.4.2.9}{19}{\texorpdfstring {get\+Image\+By\+Name()}{getImageByName()}}{table.3.23}{}}
\@writefile{toc}{\contentsline {subsubsection}{\numberline {3.4.2.10}get\discretionary {\unhbox \voidb@x \hbox {\relax \fontsize  {7}{8}\selectfont  $\leftarrow \joinrel  \rhook $}}{}{}Image\discretionary {\unhbox \voidb@x \hbox {\relax \fontsize  {7}{8}\selectfont  $\leftarrow \joinrel  \rhook $}}{}{}By\discretionary {\unhbox \voidb@x \hbox {\relax \fontsize  {7}{8}\selectfont  $\leftarrow \joinrel  \rhook $}}{}{}U\discretionary {\unhbox \voidb@x \hbox {\relax \fontsize  {7}{8}\selectfont  $\leftarrow \joinrel  \rhook $}}{}{}R\discretionary {\unhbox \voidb@x \hbox {\relax \fontsize  {7}{8}\selectfont  $\leftarrow \joinrel  \rhook $}}{}{}L()}{19}{subsubsection.3.4.2.10}}
\newlabel{class_project_a598d3336efc31012350fb3c71529c1a8}{{3.4.2.10}{19}{\texorpdfstring {get\+Image\+By\+U\+R\+L()}{getImageByURL()}}{table.3.24}{}}
\@writefile{toc}{\contentsline {subsubsection}{\numberline {3.4.2.11}get\discretionary {\unhbox \voidb@x \hbox {\relax \fontsize  {7}{8}\selectfont  $\leftarrow \joinrel  \rhook $}}{}{}Images()}{19}{subsubsection.3.4.2.11}}
\newlabel{class_project_a9eb441c9af022361dc7843078842e4ae}{{3.4.2.11}{19}{\texorpdfstring {get\+Images()}{getImages()}}{subsubsection.3.4.2.11}{}}
\@writefile{toc}{\contentsline {subsubsection}{\numberline {3.4.2.12}get\discretionary {\unhbox \voidb@x \hbox {\relax \fontsize  {7}{8}\selectfont  $\leftarrow \joinrel  \rhook $}}{}{}Images\discretionary {\unhbox \voidb@x \hbox {\relax \fontsize  {7}{8}\selectfont  $\leftarrow \joinrel  \rhook $}}{}{}File\discretionary {\unhbox \voidb@x \hbox {\relax \fontsize  {7}{8}\selectfont  $\leftarrow \joinrel  \rhook $}}{}{}Name()}{19}{subsubsection.3.4.2.12}}
\newlabel{class_project_af30b0ce402c1a82a9b46ad11b0bd76e6}{{3.4.2.12}{19}{\texorpdfstring {get\+Images\+File\+Name()}{getImagesFileName()}}{subsubsection.3.4.2.12}{}}
\@writefile{toc}{\contentsline {subsubsection}{\numberline {3.4.2.13}get\discretionary {\unhbox \voidb@x \hbox {\relax \fontsize  {7}{8}\selectfont  $\leftarrow \joinrel  \rhook $}}{}{}Name()}{20}{subsubsection.3.4.2.13}}
\newlabel{class_project_aeb293bf42546e53a8e6d6837dbba13a5}{{3.4.2.13}{20}{\texorpdfstring {get\+Name()}{getName()}}{subsubsection.3.4.2.13}{}}
\@writefile{toc}{\contentsline {subsubsection}{\numberline {3.4.2.14}get\discretionary {\unhbox \voidb@x \hbox {\relax \fontsize  {7}{8}\selectfont  $\leftarrow \joinrel  \rhook $}}{}{}Pre\discretionary {\unhbox \voidb@x \hbox {\relax \fontsize  {7}{8}\selectfont  $\leftarrow \joinrel  \rhook $}}{}{}Processing\discretionary {\unhbox \voidb@x \hbox {\relax \fontsize  {7}{8}\selectfont  $\leftarrow \joinrel  \rhook $}}{}{}Path()}{20}{subsubsection.3.4.2.14}}
\newlabel{class_project_a424d6eab576eee4863d68ee748a187c2}{{3.4.2.14}{20}{\texorpdfstring {get\+Pre\+Processing\+Path()}{getPreProcessingPath()}}{subsubsection.3.4.2.14}{}}
\@writefile{toc}{\contentsline {subsubsection}{\numberline {3.4.2.15}get\discretionary {\unhbox \voidb@x \hbox {\relax \fontsize  {7}{8}\selectfont  $\leftarrow \joinrel  \rhook $}}{}{}Sparse\discretionary {\unhbox \voidb@x \hbox {\relax \fontsize  {7}{8}\selectfont  $\leftarrow \joinrel  \rhook $}}{}{}Model\discretionary {\unhbox \voidb@x \hbox {\relax \fontsize  {7}{8}\selectfont  $\leftarrow \joinrel  \rhook $}}{}{}Full\discretionary {\unhbox \voidb@x \hbox {\relax \fontsize  {7}{8}\selectfont  $\leftarrow \joinrel  \rhook $}}{}{}Path()}{20}{subsubsection.3.4.2.15}}
\newlabel{class_project_a6ace508f881a2d7a436d417c6257eff9}{{3.4.2.15}{20}{\texorpdfstring {get\+Sparse\+Model\+Full\+Path()}{getSparseModelFullPath()}}{subsubsection.3.4.2.15}{}}
\@writefile{toc}{\contentsline {subsubsection}{\numberline {3.4.2.16}get\discretionary {\unhbox \voidb@x \hbox {\relax \fontsize  {7}{8}\selectfont  $\leftarrow \joinrel  \rhook $}}{}{}Sparse\discretionary {\unhbox \voidb@x \hbox {\relax \fontsize  {7}{8}\selectfont  $\leftarrow \joinrel  \rhook $}}{}{}Model\discretionary {\unhbox \voidb@x \hbox {\relax \fontsize  {7}{8}\selectfont  $\leftarrow \joinrel  \rhook $}}{}{}Relative\discretionary {\unhbox \voidb@x \hbox {\relax \fontsize  {7}{8}\selectfont  $\leftarrow \joinrel  \rhook $}}{}{}Path()}{20}{subsubsection.3.4.2.16}}
\newlabel{class_project_afb4dabc32a03d5ad344eefcef166f20b}{{3.4.2.16}{20}{\texorpdfstring {get\+Sparse\+Model\+Relative\+Path()}{getSparseModelRelativePath()}}{subsubsection.3.4.2.16}{}}
\@writefile{toc}{\contentsline {subsubsection}{\numberline {3.4.2.17}need\discretionary {\unhbox \voidb@x \hbox {\relax \fontsize  {7}{8}\selectfont  $\leftarrow \joinrel  \rhook $}}{}{}To\discretionary {\unhbox \voidb@x \hbox {\relax \fontsize  {7}{8}\selectfont  $\leftarrow \joinrel  \rhook $}}{}{}Save()}{20}{subsubsection.3.4.2.17}}
\newlabel{class_project_a3d166b8fd946642182bb45575f278d26}{{3.4.2.17}{20}{\texorpdfstring {need\+To\+Save()}{needToSave()}}{subsubsection.3.4.2.17}{}}
\@writefile{toc}{\contentsline {subsubsection}{\numberline {3.4.2.18}remove\discretionary {\unhbox \voidb@x \hbox {\relax \fontsize  {7}{8}\selectfont  $\leftarrow \joinrel  \rhook $}}{}{}Image\discretionary {\unhbox \voidb@x \hbox {\relax \fontsize  {7}{8}\selectfont  $\leftarrow \joinrel  \rhook $}}{}{}By\discretionary {\unhbox \voidb@x \hbox {\relax \fontsize  {7}{8}\selectfont  $\leftarrow \joinrel  \rhook $}}{}{}Name()}{20}{subsubsection.3.4.2.18}}
\gdef \LT@xxv {\LT@entry 
    {3}{37.8105pt}\LT@entry 
    {3}{34.90862pt}}
\gdef \LT@xxvi {\LT@entry 
    {3}{37.30656pt}\LT@entry 
    {3}{52.90825pt}}
\gdef \LT@xxvii {\LT@entry 
    {3}{32.31168pt}\LT@entry 
    {3}{29.9136pt}}
\gdef \LT@xxviii {\LT@entry 
    {3}{36.30759pt}\LT@entry 
    {3}{34.39566pt}}
\newlabel{class_project_ac81e5b8725ee0fdb887c8cca8b93bc68}{{3.4.2.18}{21}{\texorpdfstring {remove\+Image\+By\+Name()}{removeImageByName()}}{table.3.25}{}}
\@writefile{toc}{\contentsline {subsubsection}{\numberline {3.4.2.19}remove\discretionary {\unhbox \voidb@x \hbox {\relax \fontsize  {7}{8}\selectfont  $\leftarrow \joinrel  \rhook $}}{}{}Images\discretionary {\unhbox \voidb@x \hbox {\relax \fontsize  {7}{8}\selectfont  $\leftarrow \joinrel  \rhook $}}{}{}By\discretionary {\unhbox \voidb@x \hbox {\relax \fontsize  {7}{8}\selectfont  $\leftarrow \joinrel  \rhook $}}{}{}Name()}{21}{subsubsection.3.4.2.19}}
\newlabel{class_project_a5ca548e6afb4b793e4e904a41c7cf684}{{3.4.2.19}{21}{\texorpdfstring {remove\+Images\+By\+Name()}{removeImagesByName()}}{table.3.26}{}}
\@writefile{toc}{\contentsline {subsubsection}{\numberline {3.4.2.20}set\discretionary {\unhbox \voidb@x \hbox {\relax \fontsize  {7}{8}\selectfont  $\leftarrow \joinrel  \rhook $}}{}{}Base\discretionary {\unhbox \voidb@x \hbox {\relax \fontsize  {7}{8}\selectfont  $\leftarrow \joinrel  \rhook $}}{}{}Path()}{21}{subsubsection.3.4.2.20}}
\newlabel{class_project_a3fd3ed76476e0546cb88c975f4dc2428}{{3.4.2.20}{21}{\texorpdfstring {set\+Base\+Path()}{setBasePath()}}{table.3.27}{}}
\@writefile{toc}{\contentsline {subsubsection}{\numberline {3.4.2.21}set\discretionary {\unhbox \voidb@x \hbox {\relax \fontsize  {7}{8}\selectfont  $\leftarrow \joinrel  \rhook $}}{}{}Cloud\discretionary {\unhbox \voidb@x \hbox {\relax \fontsize  {7}{8}\selectfont  $\leftarrow \joinrel  \rhook $}}{}{}U\discretionary {\unhbox \voidb@x \hbox {\relax \fontsize  {7}{8}\selectfont  $\leftarrow \joinrel  \rhook $}}{}{}U\discretionary {\unhbox \voidb@x \hbox {\relax \fontsize  {7}{8}\selectfont  $\leftarrow \joinrel  \rhook $}}{}{}I\discretionary {\unhbox \voidb@x \hbox {\relax \fontsize  {7}{8}\selectfont  $\leftarrow \joinrel  \rhook $}}{}{}D()}{21}{subsubsection.3.4.2.21}}
\newlabel{class_project_ab3a7acc26eb0c2faadba77c273a8ea03}{{3.4.2.21}{21}{\texorpdfstring {set\+Cloud\+U\+U\+I\+D()}{setCloudUUID()}}{table.3.28}{}}
\@writefile{toc}{\contentsline {subsubsection}{\numberline {3.4.2.22}set\discretionary {\unhbox \voidb@x \hbox {\relax \fontsize  {7}{8}\selectfont  $\leftarrow \joinrel  \rhook $}}{}{}Dense\discretionary {\unhbox \voidb@x \hbox {\relax \fontsize  {7}{8}\selectfont  $\leftarrow \joinrel  \rhook $}}{}{}Model\discretionary {\unhbox \voidb@x \hbox {\relax \fontsize  {7}{8}\selectfont  $\leftarrow \joinrel  \rhook $}}{}{}Relative\discretionary {\unhbox \voidb@x \hbox {\relax \fontsize  {7}{8}\selectfont  $\leftarrow \joinrel  \rhook $}}{}{}Path()}{21}{subsubsection.3.4.2.22}}
\gdef \LT@xxix {\LT@entry 
    {3}{38.8096pt}\LT@entry 
    {3}{56.92207pt}}
\gdef \LT@xxx {\LT@entry 
    {3}{56.4491pt}\LT@entry 
    {3}{12.4pt}}
\gdef \LT@xxxi {\LT@entry 
    {3}{39.81747pt}\LT@entry 
    {3}{19.40186pt}}
\gdef \LT@xxxii {\LT@entry 
    {3}{35.30861pt}\LT@entry 
    {3}{12.4pt}}
\newlabel{class_project_a91cddff0f2530774320b9f509efc0ea2}{{3.4.2.22}{22}{\texorpdfstring {set\+Dense\+Model\+Relative\+Path()}{setDenseModelRelativePath()}}{table.3.29}{}}
\@writefile{toc}{\contentsline {subsubsection}{\numberline {3.4.2.23}set\discretionary {\unhbox \voidb@x \hbox {\relax \fontsize  {7}{8}\selectfont  $\leftarrow \joinrel  \rhook $}}{}{}Description()}{22}{subsubsection.3.4.2.23}}
\newlabel{class_project_af4082c8f1449a03122b186d17fbff420}{{3.4.2.23}{22}{\texorpdfstring {set\+Description()}{setDescription()}}{table.3.30}{}}
\@writefile{toc}{\contentsline {subsubsection}{\numberline {3.4.2.24}set\discretionary {\unhbox \voidb@x \hbox {\relax \fontsize  {7}{8}\selectfont  $\leftarrow \joinrel  \rhook $}}{}{}I\discretionary {\unhbox \voidb@x \hbox {\relax \fontsize  {7}{8}\selectfont  $\leftarrow \joinrel  \rhook $}}{}{}D()}{22}{subsubsection.3.4.2.24}}
\newlabel{class_project_ae34b1028549ce42fa5016f277eb5da38}{{3.4.2.24}{22}{\texorpdfstring {set\+I\+D()}{setID()}}{table.3.31}{}}
\@writefile{toc}{\contentsline {subsubsection}{\numberline {3.4.2.25}set\discretionary {\unhbox \voidb@x \hbox {\relax \fontsize  {7}{8}\selectfont  $\leftarrow \joinrel  \rhook $}}{}{}Name()}{22}{subsubsection.3.4.2.25}}
\newlabel{class_project_a339467e51d24d4a38e44165547cc5890}{{3.4.2.25}{22}{\texorpdfstring {set\+Name()}{setName()}}{table.3.32}{}}
\@writefile{toc}{\contentsline {subsubsection}{\numberline {3.4.2.26}set\discretionary {\unhbox \voidb@x \hbox {\relax \fontsize  {7}{8}\selectfont  $\leftarrow \joinrel  \rhook $}}{}{}Need\discretionary {\unhbox \voidb@x \hbox {\relax \fontsize  {7}{8}\selectfont  $\leftarrow \joinrel  \rhook $}}{}{}To\discretionary {\unhbox \voidb@x \hbox {\relax \fontsize  {7}{8}\selectfont  $\leftarrow \joinrel  \rhook $}}{}{}Save()}{22}{subsubsection.3.4.2.26}}
\gdef \LT@xxxiii {\LT@entry 
    {3}{36.40668pt}\LT@entry 
    {3}{36.41153pt}}
\gdef \LT@xxxiv {\LT@entry 
    {3}{70.31804pt}\LT@entry 
    {3}{29.9136pt}}
\gdef \LT@xxxv {\LT@entry 
    {3}{41.3115pt}\LT@entry 
    {3}{56.92207pt}}
\newlabel{class_project_ac6e97ebb2dd29994f8e3529eedcd0f75}{{3.4.2.26}{23}{\texorpdfstring {set\+Need\+To\+Save()}{setNeedToSave()}}{table.3.33}{}}
\@writefile{toc}{\contentsline {subsubsection}{\numberline {3.4.2.27}set\discretionary {\unhbox \voidb@x \hbox {\relax \fontsize  {7}{8}\selectfont  $\leftarrow \joinrel  \rhook $}}{}{}Preprocessing\discretionary {\unhbox \voidb@x \hbox {\relax \fontsize  {7}{8}\selectfont  $\leftarrow \joinrel  \rhook $}}{}{}Path()}{23}{subsubsection.3.4.2.27}}
\newlabel{class_project_aa669bb5aa6e48522f5ca2e6837f19d81}{{3.4.2.27}{23}{\texorpdfstring {set\+Preprocessing\+Path()}{setPreprocessingPath()}}{table.3.34}{}}
\@writefile{toc}{\contentsline {subsubsection}{\numberline {3.4.2.28}set\discretionary {\unhbox \voidb@x \hbox {\relax \fontsize  {7}{8}\selectfont  $\leftarrow \joinrel  \rhook $}}{}{}Sparse\discretionary {\unhbox \voidb@x \hbox {\relax \fontsize  {7}{8}\selectfont  $\leftarrow \joinrel  \rhook $}}{}{}Model\discretionary {\unhbox \voidb@x \hbox {\relax \fontsize  {7}{8}\selectfont  $\leftarrow \joinrel  \rhook $}}{}{}Relative\discretionary {\unhbox \voidb@x \hbox {\relax \fontsize  {7}{8}\selectfont  $\leftarrow \joinrel  \rhook $}}{}{}Path()}{23}{subsubsection.3.4.2.28}}
\@writefile{toc}{\contentsline {section}{\numberline {3.5}P\discretionary {\unhbox \voidb@x \hbox {\relax \fontsize  {7}{8}\selectfont  $\leftarrow \joinrel  \rhook $}}{}{}W2d\discretionary {\unhbox \voidb@x \hbox {\relax \fontsize  {7}{8}\selectfont  $\leftarrow \joinrel  \rhook $}}{}{}Point Class Reference}{23}{section.3.5}}
\newlabel{class_p_w2d_point}{{3.5}{23}{P\+W2d\+Point Class Reference}{section.3.5}{}}
\gdef \LT@xxxvi {\LT@entry 
    {3}{29.80966pt}\LT@entry 
    {1}{16.07751pt}}
\gdef \LT@xxxvii {\LT@entry 
    {3}{35.30861pt}\LT@entry 
    {3}{12.4pt}}
\@writefile{toc}{\contentsline {subsection}{\numberline {3.5.1}Detailed Description}{24}{subsection.3.5.1}}
\@writefile{toc}{\contentsline {subsection}{\numberline {3.5.2}Constructor \& Destructor Documentation}{24}{subsection.3.5.2}}
\newlabel{class_p_w2d_point_a23778abc1bdcc6a891af19e228eae38e}{{3.5.2}{24}{Constructor \& Destructor Documentation}{subsection.3.5.2}{}}
\@writefile{toc}{\contentsline {subsubsection}{\numberline {3.5.2.1}P\discretionary {\unhbox \voidb@x \hbox {\relax \fontsize  {7}{8}\selectfont  $\leftarrow \joinrel  \rhook $}}{}{}W2d\discretionary {\unhbox \voidb@x \hbox {\relax \fontsize  {7}{8}\selectfont  $\leftarrow \joinrel  \rhook $}}{}{}Point()\hspace  {0.1cm}{\relax \fontsize  {8}{9.5}\selectfont  \abovedisplayskip 6\p@ plus2\p@ minus4\p@ \abovedisplayshortskip \z@ plus\p@ \belowdisplayshortskip 3\p@ plus\p@ minus2\p@ \def \leftmargin \leftmargini \parsep 4\p@ plus2\p@ minus\p@ \topsep 8\p@ plus2\p@ minus4\p@ \itemsep 4\p@ plus2\p@ minus\p@ {\leftmargin \leftmargini \topsep 3\p@ plus\p@ minus\p@ \parsep 2\p@ plus\p@ minus\p@ \itemsep \parsep }\belowdisplayskip \abovedisplayskip \ttfamily  [1/2]}}{24}{subsubsection.3.5.2.1}}
\newlabel{class_p_w2d_point_af682d3f331df52083e611d89c2425879}{{3.5.2.1}{24}{\texorpdfstring {P\+W2d\+Point()}{PW2dPoint()}\hspace {0.1cm}{\footnotesize \ttfamily [1/2]}}{table.3.36}{}}
\@writefile{toc}{\contentsline {subsubsection}{\numberline {3.5.2.2}P\discretionary {\unhbox \voidb@x \hbox {\relax \fontsize  {7}{8}\selectfont  $\leftarrow \joinrel  \rhook $}}{}{}W2d\discretionary {\unhbox \voidb@x \hbox {\relax \fontsize  {7}{8}\selectfont  $\leftarrow \joinrel  \rhook $}}{}{}Point()\hspace  {0.1cm}{\relax \fontsize  {8}{9.5}\selectfont  \abovedisplayskip 6\p@ plus2\p@ minus4\p@ \abovedisplayshortskip \z@ plus\p@ \belowdisplayshortskip 3\p@ plus\p@ minus2\p@ \def \leftmargin \leftmargini \parsep 4\p@ plus2\p@ minus\p@ \topsep 8\p@ plus2\p@ minus4\p@ \itemsep 4\p@ plus2\p@ minus\p@ {\leftmargin \leftmargini \topsep 3\p@ plus\p@ minus\p@ \parsep 2\p@ plus\p@ minus\p@ \itemsep \parsep }\belowdisplayskip \abovedisplayskip \ttfamily  [2/2]}}{24}{subsubsection.3.5.2.2}}
\gdef \LT@xxxviii {\LT@entry 
    {3}{34.03969pt}\LT@entry 
    {3}{12.4pt}}
\@writefile{toc}{\contentsline {subsection}{\numberline {3.5.3}Member Function Documentation}{25}{subsection.3.5.3}}
\newlabel{class_p_w2d_point_a27d018a653c4c2b803735f3c050cf4a1}{{3.5.3}{25}{Member Function Documentation}{subsection.3.5.3}{}}
\@writefile{toc}{\contentsline {subsubsection}{\numberline {3.5.3.1}get\discretionary {\unhbox \voidb@x \hbox {\relax \fontsize  {7}{8}\selectfont  $\leftarrow \joinrel  \rhook $}}{}{}Coord()}{25}{subsubsection.3.5.3.1}}
\newlabel{class_p_w2d_point_ae4106f99a83d68b675af621008ba2572}{{3.5.3.1}{25}{\texorpdfstring {get\+Coord()}{getCoord()}}{table.3.38}{}}
\@writefile{toc}{\contentsline {subsubsection}{\numberline {3.5.3.2}get\discretionary {\unhbox \voidb@x \hbox {\relax \fontsize  {7}{8}\selectfont  $\leftarrow \joinrel  \rhook $}}{}{}Coords\discretionary {\unhbox \voidb@x \hbox {\relax \fontsize  {7}{8}\selectfont  $\leftarrow \joinrel  \rhook $}}{}{}Count()}{25}{subsubsection.3.5.3.2}}
\newlabel{class_p_w2d_point_a36cba1687ea4cd2380d62e991b67f4c2}{{3.5.3.2}{25}{\texorpdfstring {get\+Coords\+Count()}{getCoordsCount()}}{subsubsection.3.5.3.2}{}}
\@writefile{toc}{\contentsline {subsubsection}{\numberline {3.5.3.3}get\discretionary {\unhbox \voidb@x \hbox {\relax \fontsize  {7}{8}\selectfont  $\leftarrow \joinrel  \rhook $}}{}{}Point()}{25}{subsubsection.3.5.3.3}}
\newlabel{class_p_w2d_point_a01828b7772e2cda182c951348c4869bb}{{3.5.3.3}{25}{\texorpdfstring {get\+Point()}{getPoint()}}{subsubsection.3.5.3.3}{}}
\@writefile{toc}{\contentsline {subsubsection}{\numberline {3.5.3.4}set\discretionary {\unhbox \voidb@x \hbox {\relax \fontsize  {7}{8}\selectfont  $\leftarrow \joinrel  \rhook $}}{}{}Coord()}{25}{subsubsection.3.5.3.4}}
\gdef \LT@xxxix {\LT@entry 
    {3}{34.08463pt}\LT@entry 
    {3}{12.4pt}}
\@writefile{toc}{\contentsline {section}{\numberline {3.6}P\discretionary {\unhbox \voidb@x \hbox {\relax \fontsize  {7}{8}\selectfont  $\leftarrow \joinrel  \rhook $}}{}{}W3d\discretionary {\unhbox \voidb@x \hbox {\relax \fontsize  {7}{8}\selectfont  $\leftarrow \joinrel  \rhook $}}{}{}Point Class Reference}{26}{section.3.6}}
\newlabel{class_p_w3d_point}{{3.6}{26}{P\+W3d\+Point Class Reference}{section.3.6}{}}
\newlabel{class_p_w3d_point_a37df01f0d68939625fb3e2652dc43f36}{{3.6}{26}{Public Types}{section*.12}{}}
\newlabel{class_p_w3d_point_af20b413bbe5e7dc95e8023832b34a66d}{{3.6}{26}{Public Member Functions}{section*.13}{}}
\@writefile{toc}{\contentsline {subsection}{\numberline {3.6.1}Detailed Description}{26}{subsection.3.6.1}}
\gdef \LT@xl {\LT@entry 
    {3}{35.30861pt}\LT@entry 
    {3}{12.4pt}}
\gdef \LT@xli {\LT@entry 
    {3}{34.03969pt}\LT@entry 
    {3}{12.4pt}}
\@writefile{toc}{\contentsline {subsection}{\numberline {3.6.2}Constructor \& Destructor Documentation}{27}{subsection.3.6.2}}
\newlabel{class_p_w3d_point_a70a42d1f7f3741ed8fca1f6b59d73537}{{3.6.2}{27}{Constructor \& Destructor Documentation}{subsection.3.6.2}{}}
\@writefile{toc}{\contentsline {subsubsection}{\numberline {3.6.2.1}P\discretionary {\unhbox \voidb@x \hbox {\relax \fontsize  {7}{8}\selectfont  $\leftarrow \joinrel  \rhook $}}{}{}W3d\discretionary {\unhbox \voidb@x \hbox {\relax \fontsize  {7}{8}\selectfont  $\leftarrow \joinrel  \rhook $}}{}{}Point()}{27}{subsubsection.3.6.2.1}}
\@writefile{toc}{\contentsline {subsection}{\numberline {3.6.3}Member Function Documentation}{27}{subsection.3.6.3}}
\newlabel{class_p_w3d_point_a6dd1941317552e7cb3d32d8ceb15a30f}{{3.6.3}{27}{Member Function Documentation}{subsection.3.6.3}{}}
\@writefile{toc}{\contentsline {subsubsection}{\numberline {3.6.3.1}get\discretionary {\unhbox \voidb@x \hbox {\relax \fontsize  {7}{8}\selectfont  $\leftarrow \joinrel  \rhook $}}{}{}Coord()}{27}{subsubsection.3.6.3.1}}
\newlabel{class_p_w3d_point_ae30863b2f3ff539f079406196982fb8d}{{3.6.3.1}{27}{\texorpdfstring {get\+Coord()}{getCoord()}}{table.3.41}{}}
\@writefile{toc}{\contentsline {subsubsection}{\numberline {3.6.3.2}get\discretionary {\unhbox \voidb@x \hbox {\relax \fontsize  {7}{8}\selectfont  $\leftarrow \joinrel  \rhook $}}{}{}Coords\discretionary {\unhbox \voidb@x \hbox {\relax \fontsize  {7}{8}\selectfont  $\leftarrow \joinrel  \rhook $}}{}{}Count()}{27}{subsubsection.3.6.3.2}}
\newlabel{class_p_w3d_point_a9563fca89dd02efa77145d39e7160305}{{3.6.3.2}{27}{\texorpdfstring {get\+Coords\+Count()}{getCoordsCount()}}{subsubsection.3.6.3.2}{}}
\gdef \LT@xlii {\LT@entry 
    {3}{34.08463pt}\LT@entry 
    {3}{12.4pt}}
\@writefile{toc}{\contentsline {subsubsection}{\numberline {3.6.3.3}set\discretionary {\unhbox \voidb@x \hbox {\relax \fontsize  {7}{8}\selectfont  $\leftarrow \joinrel  \rhook $}}{}{}Coord()}{28}{subsubsection.3.6.3.3}}
\@writefile{toc}{\contentsline {section}{\numberline {3.7}P\discretionary {\unhbox \voidb@x \hbox {\relax \fontsize  {7}{8}\selectfont  $\leftarrow \joinrel  \rhook $}}{}{}W\discretionary {\unhbox \voidb@x \hbox {\relax \fontsize  {7}{8}\selectfont  $\leftarrow \joinrel  \rhook $}}{}{}\_\discretionary {\unhbox \voidb@x \hbox {\relax \fontsize  {7}{8}\selectfont  $\leftarrow \joinrel  \rhook $}}{}{}\discretionary {\unhbox \voidb@x \hbox {\relax \fontsize  {7}{8}\selectfont  $\leftarrow \joinrel  \rhook $}}{}{}Web\discretionary {\unhbox \voidb@x \hbox {\relax \fontsize  {7}{8}\selectfont  $\leftarrow \joinrel  \rhook $}}{}{}Services\discretionary {\unhbox \voidb@x \hbox {\relax \fontsize  {7}{8}\selectfont  $\leftarrow \joinrel  \rhook $}}{}{}\_\discretionary {\unhbox \voidb@x \hbox {\relax \fontsize  {7}{8}\selectfont  $\leftarrow \joinrel  \rhook $}}{}{}lib Class Reference}{28}{section.3.7}}
\newlabel{class_p_w___web_services__lib}{{3.7}{28}{P\+W\+\_\+\+Web\+Services\+\_\+lib Class Reference}{section.3.7}{}}
\@writefile{toc}{\contentsline {subsection}{\numberline {3.7.1}Detailed Description}{28}{subsection.3.7.1}}
\@writefile{toc}{\contentsline {section}{\numberline {3.8}P\discretionary {\unhbox \voidb@x \hbox {\relax \fontsize  {7}{8}\selectfont  $\leftarrow \joinrel  \rhook $}}{}{}W\discretionary {\unhbox \voidb@x \hbox {\relax \fontsize  {7}{8}\selectfont  $\leftarrow \joinrel  \rhook $}}{}{}Graph\discretionary {\unhbox \voidb@x \hbox {\relax \fontsize  {7}{8}\selectfont  $\leftarrow \joinrel  \rhook $}}{}{}Images Class Reference}{28}{section.3.8}}
\newlabel{class_p_w_graph_images}{{3.8}{28}{P\+W\+Graph\+Images Class Reference}{section.3.8}{}}
\gdef \LT@xliii {\LT@entry 
    {3}{41.80653pt}\LT@entry 
    {3}{32.54172pt}}
\newlabel{class_p_w_graph_images_abc783a0f8e43e33553f0f5d4b67379d6}{{3.8}{29}{Public Member Functions}{section*.15}{}}
\@writefile{toc}{\contentsline {subsection}{\numberline {3.8.1}Detailed Description}{29}{subsection.3.8.1}}
\@writefile{toc}{\contentsline {subsection}{\numberline {3.8.2}Member Function Documentation}{29}{subsection.3.8.2}}
\newlabel{class_p_w_graph_images_a0eed5618c1d137015d39ef18b1e93158}{{3.8.2}{29}{Member Function Documentation}{subsection.3.8.2}{}}
\@writefile{toc}{\contentsline {subsubsection}{\numberline {3.8.2.1}create\discretionary {\unhbox \voidb@x \hbox {\relax \fontsize  {7}{8}\selectfont  $\leftarrow \joinrel  \rhook $}}{}{}Graph()}{29}{subsubsection.3.8.2.1}}
\newlabel{class_p_w_graph_images_ac4d4a953596c44540c1bce14dfd5144a}{{3.8.2.1}{29}{\texorpdfstring {create\+Graph()}{createGraph()}}{table.3.43}{}}
\@writefile{toc}{\contentsline {subsubsection}{\numberline {3.8.2.2}get\discretionary {\unhbox \voidb@x \hbox {\relax \fontsize  {7}{8}\selectfont  $\leftarrow \joinrel  \rhook $}}{}{}Image\discretionary {\unhbox \voidb@x \hbox {\relax \fontsize  {7}{8}\selectfont  $\leftarrow \joinrel  \rhook $}}{}{}Pairs()}{29}{subsubsection.3.8.2.2}}
\gdef \LT@xliv {\LT@entry 
    {3}{37.30656pt}\LT@entry 
    {3}{32.54172pt}}
\gdef \LT@xlv {\LT@entry 
    {3}{54.6403pt}\LT@entry 
    {3}{12.4pt}}
\gdef \LT@xlvi {\LT@entry 
    {3}{43.81339pt}\LT@entry 
    {3}{51.41423pt}}
\gdef \LT@xlvii {\LT@entry 
    {3}{43.81339pt}\LT@entry 
    {3}{42.81946pt}}
\newlabel{class_p_w_graph_images_aec94df15f6ea0ab51e881ca2251c01e2}{{3.8.2.2}{30}{\texorpdfstring {get\+Image\+Pairs()}{getImagePairs()}}{table.3.44}{}}
\@writefile{toc}{\contentsline {subsubsection}{\numberline {3.8.2.3}get\discretionary {\unhbox \voidb@x \hbox {\relax \fontsize  {7}{8}\selectfont  $\leftarrow \joinrel  \rhook $}}{}{}Invalid\discretionary {\unhbox \voidb@x \hbox {\relax \fontsize  {7}{8}\selectfont  $\leftarrow \joinrel  \rhook $}}{}{}Matched\discretionary {\unhbox \voidb@x \hbox {\relax \fontsize  {7}{8}\selectfont  $\leftarrow \joinrel  \rhook $}}{}{}Category\discretionary {\unhbox \voidb@x \hbox {\relax \fontsize  {7}{8}\selectfont  $\leftarrow \joinrel  \rhook $}}{}{}Explanation()}{30}{subsubsection.3.8.2.3}}
\newlabel{class_p_w_graph_images_adced31e6d68d316acd49375b91318d86}{{3.8.2.3}{30}{\texorpdfstring {get\+Invalid\+Matched\+Category\+Explanation()}{getInvalidMatchedCategoryExplanation()}}{table.3.45}{}}
\@writefile{toc}{\contentsline {subsubsection}{\numberline {3.8.2.4}get\discretionary {\unhbox \voidb@x \hbox {\relax \fontsize  {7}{8}\selectfont  $\leftarrow \joinrel  \rhook $}}{}{}Nth\discretionary {\unhbox \voidb@x \hbox {\relax \fontsize  {7}{8}\selectfont  $\leftarrow \joinrel  \rhook $}}{}{}Ordered\discretionary {\unhbox \voidb@x \hbox {\relax \fontsize  {7}{8}\selectfont  $\leftarrow \joinrel  \rhook $}}{}{}Images()}{30}{subsubsection.3.8.2.4}}
\newlabel{class_p_w_graph_images_ab2e70a4e2786817f127f0cf9841edb58}{{3.8.2.4}{30}{\texorpdfstring {get\+Nth\+Ordered\+Images()}{getNthOrderedImages()}}{table.3.46}{}}
\@writefile{toc}{\contentsline {subsubsection}{\numberline {3.8.2.5}get\discretionary {\unhbox \voidb@x \hbox {\relax \fontsize  {7}{8}\selectfont  $\leftarrow \joinrel  \rhook $}}{}{}Ordered\discretionary {\unhbox \voidb@x \hbox {\relax \fontsize  {7}{8}\selectfont  $\leftarrow \joinrel  \rhook $}}{}{}Images()}{30}{subsubsection.3.8.2.5}}
\newlabel{class_p_w_graph_images_ad70d80a347a5ae9467d80ebe07c1b159}{{3.8.2.5}{31}{\texorpdfstring {get\+Ordered\+Images()}{getOrderedImages()}}{table.3.47}{}}
\@writefile{toc}{\contentsline {subsubsection}{\numberline {3.8.2.6}is\discretionary {\unhbox \voidb@x \hbox {\relax \fontsize  {7}{8}\selectfont  $\leftarrow \joinrel  \rhook $}}{}{}Valid()}{31}{subsubsection.3.8.2.6}}
\@writefile{toc}{\contentsline {section}{\numberline {3.9}P\discretionary {\unhbox \voidb@x \hbox {\relax \fontsize  {7}{8}\selectfont  $\leftarrow \joinrel  \rhook $}}{}{}W\discretionary {\unhbox \voidb@x \hbox {\relax \fontsize  {7}{8}\selectfont  $\leftarrow \joinrel  \rhook $}}{}{}Image Class Reference}{31}{section.3.9}}
\newlabel{class_p_w_image}{{3.9}{31}{P\+W\+Image Class Reference}{section.3.9}{}}
\newlabel{class_p_w_image_a3f22d8c0aa7ea700abf839edd0a0ce6d}{{3.9}{31}{Public Member Functions}{section*.16}{}}
\gdef \LT@xlviii {\LT@entry 
    {3}{22.93369pt}\LT@entry 
    {1}{22.95349pt}}
\@writefile{toc}{\contentsline {subsection}{\numberline {3.9.1}Detailed Description}{32}{subsection.3.9.1}}
\@writefile{toc}{\contentsline {subsection}{\numberline {3.9.2}Constructor \& Destructor Documentation}{32}{subsection.3.9.2}}
\newlabel{class_p_w_image_a3273eb13ce3ed5456d2f53a3557160ca}{{3.9.2}{32}{Constructor \& Destructor Documentation}{subsection.3.9.2}{}}
\@writefile{toc}{\contentsline {subsubsection}{\numberline {3.9.2.1}P\discretionary {\unhbox \voidb@x \hbox {\relax \fontsize  {7}{8}\selectfont  $\leftarrow \joinrel  \rhook $}}{}{}W\discretionary {\unhbox \voidb@x \hbox {\relax \fontsize  {7}{8}\selectfont  $\leftarrow \joinrel  \rhook $}}{}{}Image()}{32}{subsubsection.3.9.2.1}}
\@writefile{toc}{\contentsline {subsection}{\numberline {3.9.3}Member Function Documentation}{32}{subsection.3.9.3}}
\newlabel{class_p_w_image_ac0c891b9aff3584ede4b1a2c80814a16}{{3.9.3}{32}{Member Function Documentation}{subsection.3.9.3}{}}
\@writefile{toc}{\contentsline {subsubsection}{\numberline {3.9.3.1}get\discretionary {\unhbox \voidb@x \hbox {\relax \fontsize  {7}{8}\selectfont  $\leftarrow \joinrel  \rhook $}}{}{}Control\discretionary {\unhbox \voidb@x \hbox {\relax \fontsize  {7}{8}\selectfont  $\leftarrow \joinrel  \rhook $}}{}{}Points()}{32}{subsubsection.3.9.3.1}}
\newlabel{class_p_w_image_abf41ccbe34aa61ad4a5b8f5b6c0f3352}{{3.9.3.1}{32}{\texorpdfstring {get\+Control\+Points()}{getControlPoints()}}{subsubsection.3.9.3.1}{}}
\@writefile{toc}{\contentsline {subsubsection}{\numberline {3.9.3.2}get\discretionary {\unhbox \voidb@x \hbox {\relax \fontsize  {7}{8}\selectfont  $\leftarrow \joinrel  \rhook $}}{}{}File\discretionary {\unhbox \voidb@x \hbox {\relax \fontsize  {7}{8}\selectfont  $\leftarrow \joinrel  \rhook $}}{}{}Name()}{32}{subsubsection.3.9.3.2}}
\newlabel{class_p_w_image_ab84882d7214f3e3438ca786c8cddec5d}{{3.9.3.2}{32}{\texorpdfstring {get\+File\+Name()}{getFileName()}}{subsubsection.3.9.3.2}{}}
\@writefile{toc}{\contentsline {subsubsection}{\numberline {3.9.3.3}get\discretionary {\unhbox \voidb@x \hbox {\relax \fontsize  {7}{8}\selectfont  $\leftarrow \joinrel  \rhook $}}{}{}Full\discretionary {\unhbox \voidb@x \hbox {\relax \fontsize  {7}{8}\selectfont  $\leftarrow \joinrel  \rhook $}}{}{}Path()}{32}{subsubsection.3.9.3.3}}
\newlabel{class_p_w_image_ac4d4f5b443a2fc2a2c3277768869c42b}{{3.9.3.3}{32}{\texorpdfstring {get\+Full\+Path()}{getFullPath()}}{subsubsection.3.9.3.3}{}}
\gdef \LT@xlix {\LT@entry 
    {3}{22.93369pt}\LT@entry 
    {1}{22.95349pt}}
\gdef \LT@l {\LT@entry 
    {3}{50.46434pt}\LT@entry 
    {3}{12.4pt}}
\@writefile{toc}{\contentsline {subsubsection}{\numberline {3.9.3.4}get\discretionary {\unhbox \voidb@x \hbox {\relax \fontsize  {7}{8}\selectfont  $\leftarrow \joinrel  \rhook $}}{}{}I\discretionary {\unhbox \voidb@x \hbox {\relax \fontsize  {7}{8}\selectfont  $\leftarrow \joinrel  \rhook $}}{}{}D()}{33}{subsubsection.3.9.3.4}}
\newlabel{class_p_w_image_a3476cc379d7ecdf8d374f3fa86deac67}{{3.9.3.4}{33}{\texorpdfstring {get\+I\+D()}{getID()}}{subsubsection.3.9.3.4}{}}
\@writefile{toc}{\contentsline {subsubsection}{\numberline {3.9.3.5}get\discretionary {\unhbox \voidb@x \hbox {\relax \fontsize  {7}{8}\selectfont  $\leftarrow \joinrel  \rhook $}}{}{}Size()}{33}{subsubsection.3.9.3.5}}
\newlabel{class_p_w_image_ad182bf93b9e49cf13b264d8be139a9b1}{{3.9.3.5}{33}{\texorpdfstring {get\+Size()}{getSize()}}{subsubsection.3.9.3.5}{}}
\@writefile{toc}{\contentsline {subsubsection}{\numberline {3.9.3.6}set\discretionary {\unhbox \voidb@x \hbox {\relax \fontsize  {7}{8}\selectfont  $\leftarrow \joinrel  \rhook $}}{}{}Base\discretionary {\unhbox \voidb@x \hbox {\relax \fontsize  {7}{8}\selectfont  $\leftarrow \joinrel  \rhook $}}{}{}Path()}{33}{subsubsection.3.9.3.6}}
\newlabel{class_p_w_image_a186bdd8870fe64df65c1503a6cc0ecc1}{{3.9.3.6}{33}{\texorpdfstring {set\+Base\+Path()}{setBasePath()}}{table.3.49}{}}
\@writefile{toc}{\contentsline {subsubsection}{\numberline {3.9.3.7}set\discretionary {\unhbox \voidb@x \hbox {\relax \fontsize  {7}{8}\selectfont  $\leftarrow \joinrel  \rhook $}}{}{}Full\discretionary {\unhbox \voidb@x \hbox {\relax \fontsize  {7}{8}\selectfont  $\leftarrow \joinrel  \rhook $}}{}{}Path()}{33}{subsubsection.3.9.3.7}}
\newlabel{class_p_w_image_a493161f73528c55fa9572106af87d19b}{{3.9.3.7}{33}{\texorpdfstring {set\+Full\+Path()}{setFullPath()}}{table.3.50}{}}
\@writefile{toc}{\contentsline {subsubsection}{\numberline {3.9.3.8}set\discretionary {\unhbox \voidb@x \hbox {\relax \fontsize  {7}{8}\selectfont  $\leftarrow \joinrel  \rhook $}}{}{}I\discretionary {\unhbox \voidb@x \hbox {\relax \fontsize  {7}{8}\selectfont  $\leftarrow \joinrel  \rhook $}}{}{}D()}{33}{subsubsection.3.9.3.8}}
\gdef \LT@li {\LT@entry 
    {3}{39.81747pt}\LT@entry 
    {3}{19.40186pt}}
\@writefile{toc}{\contentsline {section}{\numberline {3.10}P\discretionary {\unhbox \voidb@x \hbox {\relax \fontsize  {7}{8}\selectfont  $\leftarrow \joinrel  \rhook $}}{}{}W\discretionary {\unhbox \voidb@x \hbox {\relax \fontsize  {7}{8}\selectfont  $\leftarrow \joinrel  \rhook $}}{}{}Point Class Reference}{34}{section.3.10}}
\newlabel{class_p_w_point}{{3.10}{34}{P\+W\+Point Class Reference}{section.3.10}{}}
\newlabel{class_p_w_point_a90fc2ed5aae187979116582185beac30}{{3.10}{34}{Public Types}{section*.18}{}}
\gdef \LT@lii {\LT@entry 
    {3}{35.30861pt}\LT@entry 
    {3}{12.4pt}}
\newlabel{class_p_w_point_aac78be5fde0c4f8c806dfd64b21e1ac5}{{3.10}{35}{Protected Attributes}{section*.20}{}}
\newlabel{class_p_w_point_a6dc1a995132491ba83bafa4a573f10f1}{{3.10}{35}{Protected Attributes}{section*.20}{}}
\newlabel{class_p_w_point_accda985bf6dc92a8945b148f9c99a6c8}{{3.10}{35}{Protected Attributes}{section*.20}{}}
\@writefile{toc}{\contentsline {subsection}{\numberline {3.10.1}Detailed Description}{35}{subsection.3.10.1}}
\@writefile{toc}{\contentsline {subsection}{\numberline {3.10.2}Constructor \& Destructor Documentation}{35}{subsection.3.10.2}}
\newlabel{class_p_w_point_ac18538c723bc8f6d16ba831a876bd52d}{{3.10.2}{35}{Constructor \& Destructor Documentation}{subsection.3.10.2}{}}
\@writefile{toc}{\contentsline {subsubsection}{\numberline {3.10.2.1}P\discretionary {\unhbox \voidb@x \hbox {\relax \fontsize  {7}{8}\selectfont  $\leftarrow \joinrel  \rhook $}}{}{}W\discretionary {\unhbox \voidb@x \hbox {\relax \fontsize  {7}{8}\selectfont  $\leftarrow \joinrel  \rhook $}}{}{}Point()}{35}{subsubsection.3.10.2.1}}
\@writefile{toc}{\contentsline {subsection}{\numberline {3.10.3}Member Function Documentation}{35}{subsection.3.10.3}}
\newlabel{class_p_w_point_ad657f4fb9d7f96b1eeb1fc37fe0cc1f9}{{3.10.3}{35}{Member Function Documentation}{subsection.3.10.3}{}}
\@writefile{toc}{\contentsline {subsubsection}{\numberline {3.10.3.1}get\discretionary {\unhbox \voidb@x \hbox {\relax \fontsize  {7}{8}\selectfont  $\leftarrow \joinrel  \rhook $}}{}{}Associated\discretionary {\unhbox \voidb@x \hbox {\relax \fontsize  {7}{8}\selectfont  $\leftarrow \joinrel  \rhook $}}{}{}Points()}{35}{subsubsection.3.10.3.1}}
\newlabel{class_p_w_point_a0d92fa717dfc8af43f53986fa2544b9f}{{3.10.3.1}{35}{\texorpdfstring {get\+Associated\+Points()}{getAssociatedPoints()}}{subsubsection.3.10.3.1}{}}
\@writefile{toc}{\contentsline {subsubsection}{\numberline {3.10.3.2}get\discretionary {\unhbox \voidb@x \hbox {\relax \fontsize  {7}{8}\selectfont  $\leftarrow \joinrel  \rhook $}}{}{}Coord()}{35}{subsubsection.3.10.3.2}}
\gdef \LT@liii {\LT@entry 
    {3}{34.03969pt}\LT@entry 
    {3}{12.4pt}}
\newlabel{class_p_w_point_a856a9d3647e2eaca61bb4317ab8d8e3d}{{3.10.3.2}{36}{\texorpdfstring {get\+Coord()}{getCoord()}}{table.3.53}{}}
\@writefile{toc}{\contentsline {subsubsection}{\numberline {3.10.3.3}get\discretionary {\unhbox \voidb@x \hbox {\relax \fontsize  {7}{8}\selectfont  $\leftarrow \joinrel  \rhook $}}{}{}Coords\discretionary {\unhbox \voidb@x \hbox {\relax \fontsize  {7}{8}\selectfont  $\leftarrow \joinrel  \rhook $}}{}{}Count()}{36}{subsubsection.3.10.3.3}}
\newlabel{class_p_w_point_a403e02cb0615e1d3a33695046a1077b2}{{3.10.3.3}{36}{\texorpdfstring {get\+Coords\+Count()}{getCoordsCount()}}{subsubsection.3.10.3.3}{}}
\@writefile{toc}{\contentsline {subsubsection}{\numberline {3.10.3.4}get\discretionary {\unhbox \voidb@x \hbox {\relax \fontsize  {7}{8}\selectfont  $\leftarrow \joinrel  \rhook $}}{}{}Name()}{36}{subsubsection.3.10.3.4}}
\newlabel{class_p_w_point_a2a0e95620848acc8b606f41ceab80217}{{3.10.3.4}{36}{\texorpdfstring {get\+Name()}{getName()}}{subsubsection.3.10.3.4}{}}
\@writefile{toc}{\contentsline {subsubsection}{\numberline {3.10.3.5}get\discretionary {\unhbox \voidb@x \hbox {\relax \fontsize  {7}{8}\selectfont  $\leftarrow \joinrel  \rhook $}}{}{}Type()}{36}{subsubsection.3.10.3.5}}
\newlabel{class_p_w_point_aedd4b6d78104e44581ba6bff0e84930b}{{3.10.3.5}{36}{\texorpdfstring {get\+Type()}{getType()}}{subsubsection.3.10.3.5}{}}
\@writefile{toc}{\contentsline {subsubsection}{\numberline {3.10.3.6}set\discretionary {\unhbox \voidb@x \hbox {\relax \fontsize  {7}{8}\selectfont  $\leftarrow \joinrel  \rhook $}}{}{}Coord()}{36}{subsubsection.3.10.3.6}}
\gdef \LT@liv {\LT@entry 
    {3}{34.03969pt}\LT@entry 
    {3}{113.23381pt}}
\gdef \LT@lv {\LT@entry 
    {3}{35.30861pt}\LT@entry 
    {3}{12.4pt}}
\newlabel{class_p_w_point_a709a4a2341bab7eb50bba2c45e2eec3d}{{3.10.3.6}{37}{\texorpdfstring {set\+Coord()}{setCoord()}}{table.3.54}{}}
\@writefile{toc}{\contentsline {subsubsection}{\numberline {3.10.3.7}set\discretionary {\unhbox \voidb@x \hbox {\relax \fontsize  {7}{8}\selectfont  $\leftarrow \joinrel  \rhook $}}{}{}Name()}{37}{subsubsection.3.10.3.7}}
\@writefile{toc}{\contentsline {section}{\numberline {3.11}S\discretionary {\unhbox \voidb@x \hbox {\relax \fontsize  {7}{8}\selectfont  $\leftarrow \joinrel  \rhook $}}{}{}H\discretionary {\unhbox \voidb@x \hbox {\relax \fontsize  {7}{8}\selectfont  $\leftarrow \joinrel  \rhook $}}{}{}A256 Class Reference}{37}{section.3.11}}
\newlabel{class_s_h_a256}{{3.11}{37}{S\+H\+A256 Class Reference}{section.3.11}{}}
\newlabel{class_s_h_a256_a9893152e0b8a75ebed254509dfb1eb4a}{{3.11}{37}{Public Member Functions}{section*.21}{}}
\newlabel{class_s_h_a256_a62ea97291cac7ce713ac2cf69219851b}{{3.11}{37}{Static Public Attributes}{section*.22}{}}
\newlabel{class_s_h_a256_a2d30c8d80b241471affd735f5f5e9925}{{3.11}{38}{Protected Types}{section*.23}{}}
\newlabel{class_s_h_a256_a30ccc62d9b521b1c527293f6a1b00dab}{{3.11}{38}{Protected Types}{section*.23}{}}
\newlabel{class_s_h_a256_a4c998d0c4b147e28438e6b5749cb987e}{{3.11}{38}{Protected Types}{section*.23}{}}
\newlabel{class_s_h_a256_a322a3833dfe2b5b01f91e05fcab90177}{{3.11}{38}{Protected Attributes}{section*.25}{}}
\newlabel{class_s_h_a256_aa692469ace938c44a2fda98432e051cb}{{3.11}{38}{Protected Attributes}{section*.25}{}}
\newlabel{class_s_h_a256_aee6109fbc9d62b228e2c8f8203884660}{{3.11}{38}{Protected Attributes}{section*.25}{}}
\newlabel{class_s_h_a256_a515335b007cd905b9e8a5b9e080687bb}{{3.11}{38}{Protected Attributes}{section*.25}{}}
\newlabel{class_s_h_a256_a2f94636534fc339f3210c12ec746bcb9}{{3.11}{38}{Static Protected Attributes}{section*.26}{}}
\@writefile{toc}{\contentsline {subsection}{\numberline {3.11.1}Detailed Description}{38}{subsection.3.11.1}}
\@writefile{toc}{\contentsline {subsection}{\numberline {3.11.2}Member Function Documentation}{38}{subsection.3.11.2}}
\newlabel{class_s_h_a256_ae28a257b66be069cc850d49dfe3d48f9}{{3.11.2}{38}{Member Function Documentation}{subsection.3.11.2}{}}
\@writefile{toc}{\contentsline {subsubsection}{\numberline {3.11.2.1}final()}{38}{subsubsection.3.11.2.1}}
\gdef \LT@lvi {\LT@entry 
    {3}{36.81152pt}\LT@entry 
    {3}{12.4pt}}
\gdef \LT@lvii {\LT@entry 
    {3}{49.31245pt}\LT@entry 
    {3}{12.4pt}}
\gdef \LT@lviii {\LT@entry 
    {3}{49.31245pt}\LT@entry 
    {3}{12.4pt}}
\newlabel{class_s_h_a256_a97f83033c1ff262737e763aa89be9487}{{3.11.2.1}{39}{\texorpdfstring {final()}{final()}}{table.3.56}{}}
\@writefile{toc}{\contentsline {subsubsection}{\numberline {3.11.2.2}transform()}{39}{subsubsection.3.11.2.2}}
\newlabel{class_s_h_a256_a2ab5f18a14b4493671e7d0c4a636b4c6}{{3.11.2.2}{39}{\texorpdfstring {transform()}{transform()}}{table.3.57}{}}
\@writefile{toc}{\contentsline {subsubsection}{\numberline {3.11.2.3}update()}{39}{subsubsection.3.11.2.3}}
\@writefile{toc}{\contentsline {subsection}{\numberline {3.11.3}Member Data Documentation}{39}{subsection.3.11.3}}
\newlabel{class_s_h_a256_ab1371749aae678c873d88ada58e4299c}{{3.11.3}{39}{Member Data Documentation}{subsection.3.11.3}{}}
\@writefile{toc}{\contentsline {subsubsection}{\numberline {3.11.3.1}sha256\discretionary {\unhbox \voidb@x \hbox {\relax \fontsize  {7}{8}\selectfont  $\leftarrow \joinrel  \rhook $}}{}{}\_\discretionary {\unhbox \voidb@x \hbox {\relax \fontsize  {7}{8}\selectfont  $\leftarrow \joinrel  \rhook $}}{}{}k}{39}{subsubsection.3.11.3.1}}
\@writefile{toc}{\contentsline {section}{\numberline {3.12}Web\discretionary {\unhbox \voidb@x \hbox {\relax \fontsize  {7}{8}\selectfont  $\leftarrow \joinrel  \rhook $}}{}{}Services\discretionary {\unhbox \voidb@x \hbox {\relax \fontsize  {7}{8}\selectfont  $\leftarrow \joinrel  \rhook $}}{}{}Client Class Reference}{40}{section.3.12}}
\newlabel{class_web_services_client}{{3.12}{40}{Web\+Services\+Client Class Reference}{section.3.12}{}}
\newlabel{class_web_services_client_a2ac6203b6d0a1aee58e78f656a474c89}{{3.12}{40}{Signals}{section*.28}{}}
\gdef \LT@lix {\LT@entry 
    {3}{50.31143pt}\LT@entry 
    {3}{12.4pt}}
\@writefile{toc}{\contentsline {subsection}{\numberline {3.12.1}Detailed Description}{41}{subsection.3.12.1}}
\@writefile{toc}{\contentsline {subsection}{\numberline {3.12.2}Constructor \& Destructor Documentation}{41}{subsection.3.12.2}}
\newlabel{class_web_services_client_a3d13e4b125515295a88850338d5f70b1}{{3.12.2}{41}{Constructor \& Destructor Documentation}{subsection.3.12.2}{}}
\@writefile{toc}{\contentsline {subsubsection}{\numberline {3.12.2.1}Web\discretionary {\unhbox \voidb@x \hbox {\relax \fontsize  {7}{8}\selectfont  $\leftarrow \joinrel  \rhook $}}{}{}Services\discretionary {\unhbox \voidb@x \hbox {\relax \fontsize  {7}{8}\selectfont  $\leftarrow \joinrel  \rhook $}}{}{}Client()}{41}{subsubsection.3.12.2.1}}
\gdef \LT@lx {\LT@entry 
    {3}{39.80846pt}\LT@entry 
    {3}{12.4pt}}
\gdef \LT@lxi {\LT@entry 
    {3}{59.30223pt}\LT@entry 
    {3}{12.4pt}}
\gdef \LT@lxii {\LT@entry 
    {3}{39.80846pt}\LT@entry 
    {3}{12.4pt}}
\@writefile{toc}{\contentsline {subsection}{\numberline {3.12.3}Member Function Documentation}{42}{subsection.3.12.3}}
\newlabel{class_web_services_client_a143592e7540231f91511bd1347c1f840}{{3.12.3}{42}{Member Function Documentation}{subsection.3.12.3}{}}
\@writefile{toc}{\contentsline {subsubsection}{\numberline {3.12.3.1}add\discretionary {\unhbox \voidb@x \hbox {\relax \fontsize  {7}{8}\selectfont  $\leftarrow \joinrel  \rhook $}}{}{}Images()}{42}{subsubsection.3.12.3.1}}
\newlabel{class_web_services_client_a82d259bf0c68644c79c7ec5fe7c7cf18}{{3.12.3.1}{42}{\texorpdfstring {add\+Images()}{addImages()}}{table.3.60}{}}
\@writefile{toc}{\contentsline {subsubsection}{\numberline {3.12.3.2}add\discretionary {\unhbox \voidb@x \hbox {\relax \fontsize  {7}{8}\selectfont  $\leftarrow \joinrel  \rhook $}}{}{}Images\discretionary {\unhbox \voidb@x \hbox {\relax \fontsize  {7}{8}\selectfont  $\leftarrow \joinrel  \rhook $}}{}{}Finished}{42}{subsubsection.3.12.3.2}}
\newlabel{class_web_services_client_a75c5dcc489b201b57068e2ae69c38ba4}{{3.12.3.2}{42}{\texorpdfstring {add\+Images\+Finished}{addImagesFinished}}{table.3.61}{}}
\@writefile{toc}{\contentsline {subsubsection}{\numberline {3.12.3.3}add\discretionary {\unhbox \voidb@x \hbox {\relax \fontsize  {7}{8}\selectfont  $\leftarrow \joinrel  \rhook $}}{}{}Products()}{42}{subsubsection.3.12.3.3}}
\newlabel{class_web_services_client_abc0ca3e002ab9b7291bd21fb80409cb6}{{3.12.3.3}{42}{\texorpdfstring {add\+Products()}{addProducts()}}{table.3.62}{}}
\@writefile{toc}{\contentsline {subsubsection}{\numberline {3.12.3.4}add\discretionary {\unhbox \voidb@x \hbox {\relax \fontsize  {7}{8}\selectfont  $\leftarrow \joinrel  \rhook $}}{}{}Products\discretionary {\unhbox \voidb@x \hbox {\relax \fontsize  {7}{8}\selectfont  $\leftarrow \joinrel  \rhook $}}{}{}Finished}{42}{subsubsection.3.12.3.4}}
\gdef \LT@lxiii {\LT@entry 
    {3}{59.30223pt}\LT@entry 
    {3}{12.4pt}}
\gdef \LT@lxiv {\LT@entry 
    {3}{39.80846pt}\LT@entry 
    {3}{12.4pt}}
\gdef \LT@lxv {\LT@entry 
    {3}{61.80412pt}\LT@entry 
    {3}{12.4pt}}
\gdef \LT@lxvi {\LT@entry 
    {3}{39.80846pt}\LT@entry 
    {3}{36.41153pt}}
\newlabel{class_web_services_client_af530be5eb96340bdddd5d75991b62e80}{{3.12.3.4}{43}{\texorpdfstring {add\+Products\+Finished}{addProductsFinished}}{table.3.63}{}}
\@writefile{toc}{\contentsline {subsubsection}{\numberline {3.12.3.5}add\discretionary {\unhbox \voidb@x \hbox {\relax \fontsize  {7}{8}\selectfont  $\leftarrow \joinrel  \rhook $}}{}{}Project()}{43}{subsubsection.3.12.3.5}}
\newlabel{class_web_services_client_a9e6272054b1a5dbbf60acc2cd4dd075d}{{3.12.3.5}{43}{\texorpdfstring {add\+Project()}{addProject()}}{table.3.64}{}}
\@writefile{toc}{\contentsline {subsubsection}{\numberline {3.12.3.6}add\discretionary {\unhbox \voidb@x \hbox {\relax \fontsize  {7}{8}\selectfont  $\leftarrow \joinrel  \rhook $}}{}{}Project\discretionary {\unhbox \voidb@x \hbox {\relax \fontsize  {7}{8}\selectfont  $\leftarrow \joinrel  \rhook $}}{}{}Finished}{43}{subsubsection.3.12.3.6}}
\newlabel{class_web_services_client_acfce80fff812559626efbd2cdedc5270}{{3.12.3.6}{43}{\texorpdfstring {add\+Project\+Finished}{addProjectFinished}}{table.3.65}{}}
\@writefile{toc}{\contentsline {subsubsection}{\numberline {3.12.3.7}chage\discretionary {\unhbox \voidb@x \hbox {\relax \fontsize  {7}{8}\selectfont  $\leftarrow \joinrel  \rhook $}}{}{}Status()}{43}{subsubsection.3.12.3.7}}
\newlabel{class_web_services_client_ab8ab6b8c8239d4b94737bd06b9df8324}{{3.12.3.7}{43}{\texorpdfstring {chage\+Status()}{chageStatus()}}{table.3.66}{}}
\@writefile{toc}{\contentsline {subsubsection}{\numberline {3.12.3.8}change\discretionary {\unhbox \voidb@x \hbox {\relax \fontsize  {7}{8}\selectfont  $\leftarrow \joinrel  \rhook $}}{}{}Status\discretionary {\unhbox \voidb@x \hbox {\relax \fontsize  {7}{8}\selectfont  $\leftarrow \joinrel  \rhook $}}{}{}Finished}{43}{subsubsection.3.12.3.8}}
\gdef \LT@lxvii {\LT@entry 
    {3}{55.44098pt}\LT@entry 
    {3}{12.4pt}}
\gdef \LT@lxviii {\LT@entry 
    {3}{39.80846pt}\LT@entry 
    {3}{12.4pt}}
\gdef \LT@lxix {\LT@entry 
    {3}{42.8144pt}\LT@entry 
    {3}{12.4pt}}
\newlabel{class_web_services_client_a6139268bf796d40262c53239db90e8a9}{{3.12.3.8}{44}{\texorpdfstring {change\+Status\+Finished}{changeStatusFinished}}{table.3.67}{}}
\@writefile{toc}{\contentsline {subsubsection}{\numberline {3.12.3.9}get\discretionary {\unhbox \voidb@x \hbox {\relax \fontsize  {7}{8}\selectfont  $\leftarrow \joinrel  \rhook $}}{}{}Base\discretionary {\unhbox \voidb@x \hbox {\relax \fontsize  {7}{8}\selectfont  $\leftarrow \joinrel  \rhook $}}{}{}U\discretionary {\unhbox \voidb@x \hbox {\relax \fontsize  {7}{8}\selectfont  $\leftarrow \joinrel  \rhook $}}{}{}R\discretionary {\unhbox \voidb@x \hbox {\relax \fontsize  {7}{8}\selectfont  $\leftarrow \joinrel  \rhook $}}{}{}L()}{44}{subsubsection.3.12.3.9}}
\newlabel{class_web_services_client_adbfd0efcdc25318d2a45a8e2170a8195}{{3.12.3.9}{44}{\texorpdfstring {get\+Base\+U\+R\+L()}{getBaseURL()}}{subsubsection.3.12.3.9}{}}
\@writefile{toc}{\contentsline {subsubsection}{\numberline {3.12.3.10}get\discretionary {\unhbox \voidb@x \hbox {\relax \fontsize  {7}{8}\selectfont  $\leftarrow \joinrel  \rhook $}}{}{}Product()\hspace  {0.1cm}{\relax \fontsize  {8}{9.5}\selectfont  \abovedisplayskip 6\p@ plus2\p@ minus4\p@ \abovedisplayshortskip \z@ plus\p@ \belowdisplayshortskip 3\p@ plus\p@ minus2\p@ \def \leftmargin \leftmargini \parsep 4\p@ plus2\p@ minus\p@ \topsep 8\p@ plus2\p@ minus4\p@ \itemsep 4\p@ plus2\p@ minus\p@ {\leftmargin \leftmargini \topsep 3\p@ plus\p@ minus\p@ \parsep 2\p@ plus\p@ minus\p@ \itemsep \parsep }\belowdisplayskip \abovedisplayskip \ttfamily  [1/2]}}{44}{subsubsection.3.12.3.10}}
\newlabel{class_web_services_client_af25d203707fc2baf9b7b78bfae9e2181}{{3.12.3.10}{44}{\texorpdfstring {get\+Product()}{getProduct()}\hspace {0.1cm}{\footnotesize \ttfamily [1/2]}}{table.3.68}{}}
\@writefile{toc}{\contentsline {subsubsection}{\numberline {3.12.3.11}get\discretionary {\unhbox \voidb@x \hbox {\relax \fontsize  {7}{8}\selectfont  $\leftarrow \joinrel  \rhook $}}{}{}Product()\hspace  {0.1cm}{\relax \fontsize  {8}{9.5}\selectfont  \abovedisplayskip 6\p@ plus2\p@ minus4\p@ \abovedisplayshortskip \z@ plus\p@ \belowdisplayshortskip 3\p@ plus\p@ minus2\p@ \def \leftmargin \leftmargini \parsep 4\p@ plus2\p@ minus\p@ \topsep 8\p@ plus2\p@ minus4\p@ \itemsep 4\p@ plus2\p@ minus\p@ {\leftmargin \leftmargini \topsep 3\p@ plus\p@ minus\p@ \parsep 2\p@ plus\p@ minus\p@ \itemsep \parsep }\belowdisplayskip \abovedisplayskip \ttfamily  [2/2]}}{44}{subsubsection.3.12.3.11}}
\newlabel{class_web_services_client_a7266985dd1d0eba924c5fdd797e10717}{{3.12.3.11}{44}{\texorpdfstring {get\+Product()}{getProduct()}\hspace {0.1cm}{\footnotesize \ttfamily [2/2]}}{table.3.69}{}}
\@writefile{toc}{\contentsline {subsubsection}{\numberline {3.12.3.12}get\discretionary {\unhbox \voidb@x \hbox {\relax \fontsize  {7}{8}\selectfont  $\leftarrow \joinrel  \rhook $}}{}{}Product\discretionary {\unhbox \voidb@x \hbox {\relax \fontsize  {7}{8}\selectfont  $\leftarrow \joinrel  \rhook $}}{}{}Finished}{44}{subsubsection.3.12.3.12}}
\gdef \LT@lxx {\LT@entry 
    {3}{55.44098pt}\LT@entry 
    {3}{12.4pt}}
\gdef \LT@lxxi {\LT@entry 
    {3}{55.44098pt}\LT@entry 
    {3}{12.4pt}}
\gdef \LT@lxxii {\LT@entry 
    {3}{47.31438pt}\LT@entry 
    {3}{12.4pt}}
\gdef \LT@lxxiii {\LT@entry 
    {3}{55.44098pt}\LT@entry 
    {3}{12.4pt}}
\newlabel{class_web_services_client_aabd6e48af271a0a1f13c5a3f56743540}{{3.12.3.12}{45}{\texorpdfstring {get\+Product\+Finished}{getProductFinished}}{table.3.70}{}}
\@writefile{toc}{\contentsline {subsubsection}{\numberline {3.12.3.13}get\discretionary {\unhbox \voidb@x \hbox {\relax \fontsize  {7}{8}\selectfont  $\leftarrow \joinrel  \rhook $}}{}{}Product\discretionary {\unhbox \voidb@x \hbox {\relax \fontsize  {7}{8}\selectfont  $\leftarrow \joinrel  \rhook $}}{}{}List\discretionary {\unhbox \voidb@x \hbox {\relax \fontsize  {7}{8}\selectfont  $\leftarrow \joinrel  \rhook $}}{}{}Finished}{45}{subsubsection.3.12.3.13}}
\newlabel{class_web_services_client_a909e33126583c68fa12d30ff0a2c2cb3}{{3.12.3.13}{45}{\texorpdfstring {get\+Product\+List\+Finished}{getProductListFinished}}{table.3.71}{}}
\@writefile{toc}{\contentsline {subsubsection}{\numberline {3.12.3.14}get\discretionary {\unhbox \voidb@x \hbox {\relax \fontsize  {7}{8}\selectfont  $\leftarrow \joinrel  \rhook $}}{}{}Products()}{45}{subsubsection.3.12.3.14}}
\newlabel{class_web_services_client_a7a6e32c646bc9eeeaa01d82b5665b7ac}{{3.12.3.14}{45}{\texorpdfstring {get\+Products()}{getProducts()}}{table.3.72}{}}
\@writefile{toc}{\contentsline {subsubsection}{\numberline {3.12.3.15}get\discretionary {\unhbox \voidb@x \hbox {\relax \fontsize  {7}{8}\selectfont  $\leftarrow \joinrel  \rhook $}}{}{}Products\discretionary {\unhbox \voidb@x \hbox {\relax \fontsize  {7}{8}\selectfont  $\leftarrow \joinrel  \rhook $}}{}{}Finished}{45}{subsubsection.3.12.3.15}}
\newlabel{class_web_services_client_aa03019359096b65a74d7008ce8598a43}{{3.12.3.15}{45}{\texorpdfstring {get\+Products\+Finished}{getProductsFinished}}{table.3.73}{}}
\@writefile{toc}{\contentsline {subsubsection}{\numberline {3.12.3.16}get\discretionary {\unhbox \voidb@x \hbox {\relax \fontsize  {7}{8}\selectfont  $\leftarrow \joinrel  \rhook $}}{}{}Products\discretionary {\unhbox \voidb@x \hbox {\relax \fontsize  {7}{8}\selectfont  $\leftarrow \joinrel  \rhook $}}{}{}List()}{45}{subsubsection.3.12.3.16}}
\gdef \LT@lxxiv {\LT@entry 
    {3}{39.80846pt}\LT@entry 
    {3}{12.4pt}}
\gdef \LT@lxxv {\LT@entry 
    {3}{39.80846pt}\LT@entry 
    {3}{12.4pt}}
\gdef \LT@lxxvi {\LT@entry 
    {3}{55.44098pt}\LT@entry 
    {3}{12.4pt}}
\newlabel{class_web_services_client_aa73202a8aca040df0d5c662656a5d51f}{{3.12.3.16}{46}{\texorpdfstring {get\+Products\+List()}{getProductsList()}}{table.3.74}{}}
\@writefile{toc}{\contentsline {subsubsection}{\numberline {3.12.3.17}get\discretionary {\unhbox \voidb@x \hbox {\relax \fontsize  {7}{8}\selectfont  $\leftarrow \joinrel  \rhook $}}{}{}Project()}{46}{subsubsection.3.12.3.17}}
\newlabel{class_web_services_client_a757179b7ffe0b8e8ef639364348f2606}{{3.12.3.17}{46}{\texorpdfstring {get\+Project()}{getProject()}}{table.3.75}{}}
\@writefile{toc}{\contentsline {subsubsection}{\numberline {3.12.3.18}get\discretionary {\unhbox \voidb@x \hbox {\relax \fontsize  {7}{8}\selectfont  $\leftarrow \joinrel  \rhook $}}{}{}Project\discretionary {\unhbox \voidb@x \hbox {\relax \fontsize  {7}{8}\selectfont  $\leftarrow \joinrel  \rhook $}}{}{}Information\discretionary {\unhbox \voidb@x \hbox {\relax \fontsize  {7}{8}\selectfont  $\leftarrow \joinrel  \rhook $}}{}{}Finished}{46}{subsubsection.3.12.3.18}}
\newlabel{class_web_services_client_a1b8029a51eac6fef7a2295b8b23b2621}{{3.12.3.18}{46}{\texorpdfstring {get\+Project\+Information\+Finished}{getProjectInformationFinished}}{table.3.76}{}}
\@writefile{toc}{\contentsline {subsubsection}{\numberline {3.12.3.19}get\discretionary {\unhbox \voidb@x \hbox {\relax \fontsize  {7}{8}\selectfont  $\leftarrow \joinrel  \rhook $}}{}{}Session\discretionary {\unhbox \voidb@x \hbox {\relax \fontsize  {7}{8}\selectfont  $\leftarrow \joinrel  \rhook $}}{}{}Status()}{46}{subsubsection.3.12.3.19}}
\newlabel{class_web_services_client_aa193ba2eccf9643338a5ca58dbc2e2ce}{{3.12.3.19}{46}{\texorpdfstring {get\+Session\+Status()}{getSessionStatus()}}{subsubsection.3.12.3.19}{}}
\@writefile{toc}{\contentsline {subsubsection}{\numberline {3.12.3.20}is\discretionary {\unhbox \voidb@x \hbox {\relax \fontsize  {7}{8}\selectfont  $\leftarrow \joinrel  \rhook $}}{}{}Logged()}{46}{subsubsection.3.12.3.20}}
\newlabel{class_web_services_client_ad3d2b47da42b805d62369cae758a9004}{{3.12.3.20}{46}{\texorpdfstring {is\+Logged()}{isLogged()}}{subsubsection.3.12.3.20}{}}
\gdef \LT@lxxvii {\LT@entry 
    {3}{50.95047pt}\LT@entry 
    {3}{12.4pt}}
\gdef \LT@lxxviii {\LT@entry 
    {3}{55.44098pt}\LT@entry 
    {3}{12.4pt}}
\gdef \LT@lxxix {\LT@entry 
    {3}{32.31168pt}\LT@entry 
    {3}{30.39975pt}}
\@writefile{toc}{\contentsline {subsubsection}{\numberline {3.12.3.21}login()}{47}{subsubsection.3.12.3.21}}
\newlabel{class_web_services_client_a407b790a29d70726f9c55c550795d583}{{3.12.3.21}{47}{\texorpdfstring {login()}{login()}}{table.3.77}{}}
\@writefile{toc}{\contentsline {subsubsection}{\numberline {3.12.3.22}login\discretionary {\unhbox \voidb@x \hbox {\relax \fontsize  {7}{8}\selectfont  $\leftarrow \joinrel  \rhook $}}{}{}Finished}{47}{subsubsection.3.12.3.22}}
\newlabel{class_web_services_client_af519e14f5443c63e9519f15e0f5bfc65}{{3.12.3.22}{47}{\texorpdfstring {login\+Finished}{loginFinished}}{table.3.78}{}}
\@writefile{toc}{\contentsline {subsubsection}{\numberline {3.12.3.23}set\discretionary {\unhbox \voidb@x \hbox {\relax \fontsize  {7}{8}\selectfont  $\leftarrow \joinrel  \rhook $}}{}{}Base\discretionary {\unhbox \voidb@x \hbox {\relax \fontsize  {7}{8}\selectfont  $\leftarrow \joinrel  \rhook $}}{}{}U\discretionary {\unhbox \voidb@x \hbox {\relax \fontsize  {7}{8}\selectfont  $\leftarrow \joinrel  \rhook $}}{}{}R\discretionary {\unhbox \voidb@x \hbox {\relax \fontsize  {7}{8}\selectfont  $\leftarrow \joinrel  \rhook $}}{}{}L()}{47}{subsubsection.3.12.3.23}}
\@writefile{toc}{\contentsline {chapter}{Index}{49}{section*.30}}
